487,475,464,453,442,432,421,411,401,392,382,373,365,355,347,338,331,323,315,307,300,293,286,279,272,266,259,253,247,241,235,230,224,219,213,208,203,198,194,189,184,180,176,171,167,163,159,155,151,148,144,141,137,134,131,127,124,121,119,116,113,110,107,105,102,100,97,95,92,90,88,86,84,81,79,77,76,74,72,70,68,67,65,63,62,60,59,57,56,54,53,52,50,49,48,46,45
487,475,464,453,442,432,421,411,401,392,382,373,365,355,347,338,331,323,315,307,300,293,286,279,272,266,259,253,247,241,235,230,224,219,213,208,203,198,194,189,184,180,176,171,167,163,159,155,151,148,144,141,137,134,131,127,124,121,119,116,113,110,107,105,102,100,97,95,92,90,88,86,84,81,79,77,76,74,72,70,68,67,65,63,62,60,59,57,56,54,53,52,50,49,48,46
487,475,464,453,442,432,421,411,401,392,382,373,365,355,347,338,331,323,315,307,300,293,286,279,272,266,259,253,247,241,235,230,224,219,213,208,203,198,194,189,184,180,176,171,167,163,159,155,151,148,144,141,137,134,131,127,124,121,119,116,113,110,107,105,102,100,97,95,92,90,88,86,84,81,79,77,76,74,72,70,68,67,65,63,62,60,59,57,56,54,53,52,50,49,48,46,45,44,43,42
487,475,464,453,442,432,421,411,401,392,382,373,365,355,347,338,331,323,315,307,300,293,286,279,272,266,259,253,247,241,235,230,224,219,213,208,203,198,194,189,184,180,176,171,167,163,159,155,151,148,144,141,137,134,131,127,124,121,119,116,113,110,107,105,102,100,97,95,92,90,88,86,84,81,79,77,76,74,72,70,68,67,65,63,62,60,59,57,56,54,53,52,50,49,48,46,45,44,43
487,475,464,453,442,432,421,411,401,392,382,373,365,355,347,338,331,323,315,307,300,293,286,279,272,266,259,253,247,241,235,230,224,219,213,208,203,198,194,189,184,180,176,171,167,163,159,155,151,148,144,141,137,134,131,127,124,121,119,116,113,110,107,105,102,100,97,95,92,90,88,86,84,81,79,77,76,74,72,70,68,67,65,63,62,60,59,57,56,54,53,52,50,49,48,46,45,44,43,42
487,475,464,453,442,432,421,411,401,392,382,373,365,355,347,338,331,323,315,307,300,293,286,279,272,266,259,253,247,241,235,230,224,219,213,208,203,198,194,189,184,180,176,171,167,163,159,155,151,148,144,141,137,134,131,127,124,121,119,116,113,110,107,105,102,100,97,95,92,90,88,86,84,81,79,77,76,74,72,70,68,67,65,63,62,60,59,57,56,54,53,52,50,49,48
487,475,464,453,442,432,421,411,401,392,382,373,365,355,347,338,331,323,315,307,300,293,286,279,272,266,259,253,247,241,235,230,224,219,213,208,203,198,194,189,184,180,176,171,167,163,159,155,151,148,144,141,137,134,131,127,124,121,119,116,113,110,107,105,102,100,97,95,92,90,88,86,84,81,79,77,76,74,72,70,68,67,65,63,62,60,59,57,56,54,53,52,50,49,48,46,45
487,475,464,453,442,432,421,411,401,392,382,373,365,355,347,338,331,323,315,307,300,293,286,279,272,266,259,253,247,241,235,230,224,219,213,208,203,198,194,189,184,180,176,171,167,163,159,155,151,148,144,141,137,134,131,127,124,121,119,116,113,110,107,105,102,100,97,95,92,90,88,86,84,81,79,77,76,74,72,70,68,67,65,63,62,60,59,57,56,54,53,52,50,49,48
487,475,464,453,442,432,421,411,401,392,382,373,365,355,347,338,331,323,315,307,300,293,286,279,272,266,259,253,247,241,235,230,224,219,213,208,203,198,194,189,184,180,176,171,167,163,159,155,151,148,144,141,137,134,131,127,124,121,119,116,113,110,107,105,102,100,97,95,92,90,88,86,84,81,79,77,76,74,72,70,68,67,65,63,62,60,59,57,56,54,53,52,50,49,48,46,45,44,43,42
487,475,464,453,442,432,421,411,401,392,382,373,365,355,347,338,331,323,315,307,300,293,286,279,272,266,259,253,247,241,235,230,224,219,213,208,203,198,194,189,184,180,176,171,167,163,159,155,151,148,144,141,137,134,131,127,124,121,119,116,113,110,107,105,102,100,97,95,92,90,88,86,84,81,79,77,76,74,72,70,68,67,65,63,62,60,59,57,56,54,53,52,50,49
487,475,464,453,442,432,421,411,401,392,382,373,365,355,347,338,331,323,315,307,300,293,286,279,272,266,259,253,247,241,235,230,224,219,213,208,203,198,194,189,184,180,176,171,167,163,159,155,151,148,144,141,137,134,131,127,124,121,119,116,113,110,107,105,102,100,97,95,92,90,88,86,84,81,79,77,76,74,72,70,68,67,65,63,62,60,59,57,56,54,53,52,50,49,48,46
487,475,464,453,442,432,421,411,401,392,382,373,365,355,347,338,331,323,315,307,300,293,286,279,272,266,259,253,247,241,235,230,224,219,213,208,203,198,194,189,184,180,176,171,167,163,159,155,151,148,144,141,137,134,131,127,124,121,119,116,113,110,107,105,102,100,97,95,92,90,88,86,84,81,79,77,76,74,72,70,68,67,65,63,62,60,59,57,56,54,53,52,50,49,48,46,45,44,43
487,475,464,453,442,432,421,411,401,392,382,373,365,355,347,338,331,323,315,307,300,293,286,279,272,266,259,253,247,241,235,230,224,219,213,208,203,198,194,189,184,180,176,171,167,163,159,155,151,148,144,141,137,134,131,127,124,121,119,116,113,110,107,105,102,100,97,95,92,90,88,86,84,81,79,77,76,74,72,70,68,67,65,63,62,60,59,57,56
487,475,464,453,442,432,421,411,401,392,382,373,365,355,347,338,331,323,315,307,300,293,286,279,272,266,259,253,247,241,235,230,224,219,213,208,203,198,194,189,184,180,176,171,167,163,159,155,151,148,144,141,137,134,131,127,124,121,119,116,113,110,107,105,102,100,97,95,92,90,88,86,84,81,79,77,76,74,72,70,68,67,65,63,62,60,59,57,56,54,53,52,50,49,48,46,45,44,43,42
487,475,464,453,442,432,421,411,401,392,382,373,365,355,347,338,331,323,315,307,300,293,286,279,272,266,259,253,247,241,235,230,224,219,213,208,203,198,194,189,184,180,176,171,167,163,159,155,151,148,144,141,137,134,131,127,124,121,119,116,113,110,107,105,102,100,97,95,92,90,88,86,84,81,79,77,76,74,72,70,68,67,65,63,62,60,59,57,56,54,53,52
487,475,464,453,442,432,421,411,401,392,382,373,365,355,347,338,331,323,315,307,300,293,286,279,272,266,259,253,247,241,235,230,224,219,213,208,203,198,194,189,184,180,176,171,167,163,159,155,151,148,144,141,137,134,131,127,124,121,119,116,113,110,107,105,102,100,97,95,92,90,88,86,84,81,79,77,76,74,72,70,68,67,65,63,62,60,59,57,56
487,475,464,453,442,432,421,411,401,392,382,373,365,355,347,338,331,323,315,307,300,293,286,279,272,266,259,253,247,241,235,230,224,219,213,208,203,198,194,189,184,180,176,171,167,163,159,155,151,148,144,141,137,134,131,127,124,121,119,116,113,110,107,105,102,100,97,95,92,90,88,86,84,81,79,77,76,74,72,70,68,67,65,63,62,60,59,57,56,54,53,52,50,49
487,475,464,453,442,432,421,411,401,392,382,373,365,355,347,338,331,323,315,307,300,293,286,279,272,266,259,253,247,241,235,230,224,219,213,208,203,198,194,189,184,180,176,171,167,163,159,155,151,148,144,141,137,134,131,127,124,121,119,116,113,110,107,105,102,100,97,95,92,90,88,86,84,81,79,77,76,74,72,70,68,67,65,63,62,60,59,57,56,54,53,52,50,49,48
487,475,464,453,442,432,421,411,401,392,382,373,365,355,347,338,331,323,315,307,300,293,286,279,272,266,259,253,247,241,235,230,224,219,213,208,203,198,194,189,184,180,176,171,167,163,159,155,151,148,144,141,137,134,131,127,124,121,119,116,113,110,107,105,102,100,97,95,92,90,88,86,84,81,79,77,76,74,72,70,68,67,65,63,62,60,59,57,56,54,53,52,50,49,48,46,45,44,43,42
487,475,464,453,442,432,421,411,401,392,382,373,365,355,347,338,331,323,315,307,300,293,286,279,272,266,259,253,247,241,235,230,224,219,213,208,203,198,194,189,184,180,176,171,167,163,159,155,151,148,144,141,137,134,131,127,124,121,119,116,113,110,107,105,102,100,97,95,92,90,88,86,84,81,79,77,76,74,72,70,68,67,65,63,62,60,59,57,56,54,53,52,50,49,48,46,45,44,43,42
487,475,464,453,442,432,421,411,401,392,382,373,365,355,347,338,331,323,315,307,300,293,286,279,272,266,259,253,247,241,235,230,224,219,213,208,203,198,194,189,184,180,176,171,167,163,159,155,151,148,144,141,137,134,131,127,124,121,119,116,113,110,107,105,102,100,97,95,92,90,88,86,84,81,79,77,76,74,72,70,68,67,65,63,62,60,59,57,56,54,53,52,50,49,48,46,45,44
487,475,464,453,442,432,421,411,401,392,382,373,365,355,347,338,331,323,315,307,300,293,286,279,272,266,259,253,247,241,235,230,224,219,213,208,203,198,194,189,184,180,176,171,167,163,159,155,151,148,144,141,137,134,131,127,124,121,119,116,113,110,107,105,102,100,97,95,92,90,88,86,84,81,79,77,76,74,72,70,68,67,65,63,62,60,59,57,56,54,53,52,50,49,48,46,45,44
487,475,464,453,442,432,421,411,401,392,382,373,365,355,347,338,331,323,315,307,300,293,286,279,272,266,259,253,247,241,235,230,224,219,213,208,203,198,194,189,184,180,176,171,167,163,159,155,151,148,144,141,137,134,131,127,124,121,119,116,113,110,107,105,102,100,97,95,92,90,88,86,84,81,79,77,76,74,72,70,68,67,65,63,62,60,59,57
487,475,464,453,442,432,421,411,401,392,382,373,365,355,347,338,331,323,315,307,300,293,286,279,272,266,259,253,247,241,235,230,224,219,213,208,203,198,194,189,184,180,176,171,167,163,159,155,151,148,144,141,137,134,131,127,124,121,119,116,113,110,107,105,102,100,97,95,92,90,88,86,84,81,79,77,76,74,72,70,68,67,65,63,62,60,59,57,56,54,53,52,50,49
487,475,464,453,442,432,421,411,401,392,382,373,365,355,347,338,331,323,315,307,300,293,286,279,272,266,259,253,247,241,235,230,224,219,213,208,203,198,194,189,184,180,176,171,167,163,159,155,151,148,144,141,137,134,131,127,124,121,119,116,113,110,107,105,102,100,97,95,92,90,88,86,84,81,79,77,76,74,72,70,68,67,65,63,62,60,59,57,56,54,53,52,50,49,48
487,475,464,453,442,432,421,411,401,392,382,373,365,355,347,338,331,323,315,307,300,293,286,279,272,266,259,253,247,241,235,230,224,219,213,208,203,198,194,189,184,180,176,171,167,163,159,155,151,148,144,141,137,134,131,127,124,121,119,116,113,110,107,105,102,100,97,95,92,90,88,86,84,81,79,77,76,74,72,70,68,67,65,63,62,60,59,57,56,54,53,52,50
487,475,464,453,442,432,421,411,401,392,382,373,365,355,347,338,331,323,315,307,300,293,286,279,272,266,259,253,247,241,235,230,224,219,213,208,203,198,194,189,184,180,176,171,167,163,159,155,151,148,144,141,137,134,131,127,124,121,119,116,113,110,107,105,102,100,97,95,92,90,88,86,84,81,79,77,76,74,72,70,68,67,65,63,62,60,59,57,56,54,53,52,50,49,48
487,475,464,453,442,432,421,411,401,392,382,373,365,355,347,338,331,323,315,307,300,293,286,279,272,266,259,253,247,241,235,230,224,219,213,208,203,198,194,189,184,180,176,171,167,163,159,155,151,148,144,141,137,134,131,127,124,121,119,116,113,110,107,105,102,100,97,95,92,90,88,86,84,81,79,77,76,74,72,70,68,67,65,63,62,60,59,57,56,54,53,52,50
487,475,464,453,442,432,421,411,401,392,382,373,365,355,347,338,331,323,315,307,300,293,286,279,272,266,259,253,247,241,235,230,224,219,213,208,203,198,194,189,184,180,176,171,167,163,159,155,151,148,144,141,137,134,131,127,124,121,119,116,113,110,107,105,102,100,97,95,92,90,88,86,84,81,79,77,76,74,72,70,68,67,65,63,62,60,59,57,56,54,53,52,50,49,48,46,45,44,43,42
487,475,464,453,442,432,421,411,401,392,382,373,365,355,347,338,331,323,315,307,300,293,286,279,272,266,259,253,247,241,235,230,224,219,213,208,203,198,194,189,184,180,176,171,167,163,159,155,151,148,144,141,137,134,131,127,124,121,119,116,113,110,107,105,102,100,97,95,92,90,88,86,84,81,79,77,76,74,72,70,68,67,65,63,62,60,59,57,56,54,53,52,50,49,48,46,45,44,43,42
487,475,464,453,442,432,421,411,401,392,382,373,365,355,347,338,331,323,315,307,300,293,286,279,272,266,259,253,247,241,235,230,224,219,213,208,203,198,194,189,184,180,176,171,167,163,159,155,151,148,144,141,137,134,131,127,124,121,119,116,113,110,107,105,102,100,97,95,92,90,88,86,84,81,79,77,76,74,72,70,68,67,65,63,62,60,59,57,56,54,53,52,50,49
487,475,464,453,442,432,421,411,401,392,382,373,365,355,347,338,331,323,315,307,300,293,286,279,272,266,259,253,247,241,235,230,224,219,213,208,203,198,194,189,184,180,176,171,167,163,159,155,151,148,144,141,137,134,131,127,124,121,119,116,113,110,107,105,102,100,97,95,92,90,88,86,84,81,79,77,76,74,72,70,68,67,65,63,62,60,59,57,56,54,53,52,50,49,48,46,45,44,43,42
487,475,464,453,442,432,421,411,401,392,382,373,365,355,347,338,331,323,315,307,300,293,286,279,272,266,259,253,247,241,235,230,224,219,213,208,203,198,194,189,184,180,176,171,167,163,159,155,151,148,144,141,137,134,131,127,124,121,119,116,113,110,107,105,102,100,97,95,92,90,88,86,84,81,79,77,76,74,72,70,68,67,65,63,62,60,59,57,56,54,53,52,50,49,48,46,45
487,475,464,453,442,432,421,411,401,392,382,373,365,355,347,338,331,323,315,307,300,293,286,279,272,266,259,253,247,241,235,230,224,219,213,208,203,198,194,189,184,180,176,171,167,163,159,155,151,148,144,141,137,134,131,127,124,121,119,116,113,110,107,105,102,100,97,95,92,90,88,86,84,81,79,77,76,74,72,70,68,67,65,63,62,60,59,57
487,475,464,453,442,432,421,411,401,392,382,373,365,355,347,338,331,323,315,307,300,293,286,279,272,266,259,253,247,241,235,230,224,219,213,208,203,198,194,189,184,180,176,171,167,163,159,155,151,148,144,141,137,134,131,127,124,121,119,116,113,110,107,105,102,100,97,95,92,90,88,86,84,81,79,77,76,74,72,70,68,67,65,63,62,60,59,57,56,54,53,52,50,49,48,46,45,44,43,42
487,475,464,453,442,432,421,411,401,392,382,373,365,355,347,338,331,323,315,307,300,293,286,279,272,266,259,253,247,241,235,230,224,219,213,208,203,198,194,189,184,180,176,171,167,163,159,155,151,148,144,141,137,134,131,127,124,121,119,116,113,110,107,105,102,100,97,95,92,90,88,86,84,81,79,77,76,74,72,70,68,67,65,63,62,60,59,57,56,54,53,52,50,49,48,46,45,44,43,42
487,475,464,453,442,432,421,411,401,392,382,373,365,355,347,338,331,323,315,307,300,293,286,279,272,266,259,253,247,241,235,230,224,219,213,208,203,198,194,189,184,180,176,171,167,163,159,155,151,148,144,141,137,134,131,127,124,121,119,116,113,110,107,105,102,100,97,95,92,90,88,86,84,81,79,77,76,74,72,70,68,67,65,63,62,60,59,57,56,54,53,52
487,475,464,453,442,432,421,411,401,392,382,373,365,355,347,338,331,323,315,307,300,293,286,279,272,266,259,253,247,241,235,230,224,219,213,208,203,198,194,189,184,180,176,171,167,163,159,155,151,148,144,141,137,134,131,127,124,121,119,116,113,110,107,105,102,100,97,95,92,90,88,86,84,81,79,77,76,74,72,70,68,67,65,63,62,60,59,57,56,54,53,52,50,49,48,46,45,44,43,42
487,475,464,453,442,432,421,411,401,392,382,373,365,355,347,338,331,323,315,307,300,293,286,279,272,266,259,253,247,241,235,230,224,219,213,208,203,198,194,189,184,180,176,171,167,163,159,155,151,148,144,141,137,134,131,127,124,121,119,116,113,110,107,105,102,100,97,95,92,90,88,86,84,81,79,77,76,74,72,70,68,67,65,63,62,60,59,57,56,54,53,52,50,49,48,46,45
487,475,464,453,442,432,421,411,401,392,382,373,365,355,347,338,331,323,315,307,300,293,286,279,272,266,259,253,247,241,235,230,224,219,213,208,203,198,194,189,184,180,176,171,167,163,159,155,151,148,144,141,137,134,131,127,124,121,119,116,113,110,107,105,102,100,97,95,92,90,88,86,84,81,79,77,76,74,72,70,68,67,65,63,62,60,59,57,56,54,53,52,50,49,48,46,45,44,43,42
487,475,464,453,442,432,421,411,401,392,382,373,365,355,347,338,331,323,315,307,300,293,286,279,272,266,259,253,247,241,235,230,224,219,213,208,203,198,194,189,184,180,176,171,167,163,159,155,151,148,144,141,137,134,131,127,124,121,119,116,113,110,107,105,102,100,97,95,92,90,88,86,84,81,79,77,76,74,72,70,68,67,65,63,62,60,59,57,56,54
487,475,464,453,442,432,421,411,401,392,382,373,365,355,347,338,331,323,315,307,300,293,286,279,272,266,259,253,247,241,235,230,224,219,213,208,203,198,194,189,184,180,176,171,167,163,159,155,151,148,144,141,137,134,131,127,124,121,119,116,113,110,107,105,102,100,97,95,92,90,88,86,84,81,79,77,76,74,72,70,68,67,65,63,62,60,59
487,475,464,453,442,432,421,411,401,392,382,373,365,355,347,338,331,323,315,307,300,293,286,279,272,266,259,253,247,241,235,230,224,219,213,208,203,198,194,189,184,180,176,171,167,163,159,155,151,148,144,141,137,134,131,127,124,121,119,116,113,110,107,105,102,100,97,95,92,90,88,86,84,81,79,77,76,74,72,70,68,67,65,63,62,60,59
487,475,464,453,442,432,421,411,401,392,382,373,365,355,347,338,331,323,315,307,300,293,286,279,272,266,259,253,247,241,235,230,224,219,213,208,203,198,194,189,184,180,176,171,167,163,159,155,151,148,144,141,137,134,131,127,124,121,119,116,113,110,107,105,102,100,97,95,92,90,88,86,84,81,79,77,76,74,72,70,68,67,65,63,62,60,59,57,56,54,53,52,50,49,48,46,45,44
487,475,464,453,442,432,421,411,401,392,382,373,365,355,347,338,331,323,315,307,300,293,286,279,272,266,259,253,247,241,235,230,224,219,213,208,203,198,194,189,184,180,176,171,167,163,159,155,151,148,144,141,137,134,131,127,124,121,119,116,113,110,107,105,102,100,97,95,92,90,88,86,84,81,79,77,76,74,72,70,68,67,65,63,62,60,59
487,475,464,453,442,432,421,411,401,392,382,373,365,355,347,338,331,323,315,307,300,293,286,279,272,266,259,253,247,241,235,230,224,219,213,208,203,198,194,189,184,180,176,171,167,163,159,155,151,148,144,141,137,134,131,127,124,121,119,116,113,110,107,105,102,100,97,95,92,90,88,86,84,81,79,77,76,74,72,70,68,67,65,63,62,60,59,57,56,54,53,52,50
487,475,464,453,442,432,421,411,401,392,382,373,365,355,347,338,331,323,315,307,300,293,286,279,272,266,259,253,247,241,235,230,224,219,213,208,203,198,194,189,184,180,176,171,167,163,159,155,151,148,144,141,137,134,131,127,124,121,119,116,113,110,107,105,102,100,97,95,92,90,88,86,84,81,79,77,76,74,72,70,68,67,65,63,62,60,59,57,56,54,53,52,50,49,48,46,45,44,43,42
487,475,464,453,442,432,421,411,401,392,382,373,365,355,347,338,331,323,315,307,300,293,286,279,272,266,259,253,247,241,235,230,224,219,213,208,203,198,194,189,184,180,176,171,167,163,159,155,151,148,144,141,137,134,131,127,124,121,119,116,113,110,107,105,102,100,97,95,92,90,88,86,84,81,79,77,76,74,72,70,68,67,65,63,62,60,59,57,56,54,53,52
487,475,464,453,442,432,421,411,401,392,382,373,365,355,347,338,331,323,315,307,300,293,286,279,272,266,259,253,247,241,235,230,224,219,213,208,203,198,194,189,184,180,176,171,167,163,159,155,151,148,144,141,137,134,131,127,124,121,119,116,113,110,107,105,102,100,97,95,92,90,88,86,84,81
487,475,464,453,442,432,421,411,401,392,382,373,365,355,347,338,331,323,315,307,300,293,286,279,272,266,259,253,247,241,235,230,224,219,213,208,203,198,194,189,184,180,176,171,167,163,159,155,151,148,144,141,137,134,131,127,124,121,119,116,113,110,107,105,102,100,97,95,92,90,88,86,84,81,79,77,76,74,72
487,475,464,453,442,432,421,411,401,392,382,373,365,355,347,338,331,323,315,307,300,293,286,279,272,266,259,253,247,241,235,230,224,219,213,208,203,198,194,189,184,180,176,171,167,163,159,155,151,148,144,141,137,134,131,127,124,121,119,116,113,110,107,105,102,100,97,95,92,90,88,86,84,81,79,77,76,74,72,70,68,67,65,63,62,60,59,57,56,54,53,52
487,475,464,453,442,432,421,411,401,392,382,373,365,355,347,338,331,323,315,307,300,293,286,279,272,266,259,253,247,241,235,230,224,219,213,208,203,198,194,189,184,180,176,171,167,163,159,155,151,148,144,141,137,134,131,127,124,121,119,116,113,110,107,105,102,100,97,95,92,90,88,86,84,81,79,77,76,74,72,70,68,67,65,63,62,60,59,57,56,54,53,52,50,49,48,46,45,44,43,42
487,475,464,453,442,432,421,411,401,392,382,373,365,355,347,338,331,323,315,307,300,293,286,279,272,266,259,253,247,241,235,230,224,219,213,208,203,198,194,189,184,180,176,171,167,163,159,155,151,148,144,141,137,134,131,127,124,121,119,116,113,110,107,105,102,100,97,95,92,90,88,86,84,81,79,77,76,74,72,70,68,67,65,63,62,60,59,57,56,54,53,52,50,49,48,46,45
487,475,464,453,442,432,421,411,401,392,382,373,365,355,347,338,331,323,315,307,300,293,286,279,272,266,259,253,247,241,235,230,224,219,213,208,203,198,194,189,184,180,176,171,167,163,159,155,151,148,144,141,137,134,131,127,124,121,119,116,113,110,107,105,102,100,97,95,92,90,88,86,84,81,79,77,76,74,72,70,68,67,65,63,62,60,59
487,475,464,453,442,432,421,411,401,392,382,373,365,355,347,338,331,323,315,307,300,293,286,279,272,266,259,253,247,241,235,230,224,219,213,208,203,198,194,189,184,180,176,171,167,163,159,155,151,148,144,141,137,134,131,127,124,121,119,116,113,110,107,105,102,100,97,95,92,90,88,86,84,81,79,77,76,74,72,70,68,67,65,63,62,60,59,57,56,54,53,52,50,49,48,46
487,475,464,453,442,432,421,411,401,392,382,373,365,355,347,338,331,323,315,307,300,293,286,279,272,266,259,253,247,241,235,230,224,219,213,208,203,198,194,189,184,180,176,171,167,163,159,155,151,148,144,141,137,134,131,127,124,121,119,116,113,110,107,105,102,100,97,95,92,90,88,86,84,81,79,77,76,74,72,70,68,67,65,63,62,60,59,57,56,54,53,52,50,49,48,46
487,475,464,453,442,432,421,411,401,392,382,373,365,355,347,338,331,323,315,307,300,293,286,279,272,266,259,253,247,241,235,230,224,219,213,208,203,198,194,189,184,180,176,171,167,163,159,155,151,148,144,141,137,134,131,127,124,121,119,116,113,110,107,105,102,100,97,95,92,90,88,86,84,81,79,77,76,74,72,70,68,67,65,63,62,60,59,57,56,54,53,52,50,49,48,46,45
487,475,464,453,442,432,421,411,401,392,382,373,365,355,347,338,331,323,315,307,300,293,286,279,272,266,259,253,247,241,235,230,224,219,213,208,203,198,194,189,184,180,176,171,167,163,159,155,151,148,144,141,137,134,131,127,124,121,119,116,113,110,107,105,102,100,97,95,92,90,88,86,84,81,79,77,76,74,72,70,68,67,65,63,62,60,59,57,56,54,53,52,50,49,48
487,475,464,453,442,432,421,411,401,392,382,373,365,355,347,338,331,323,315,307,300,293,286,279,272,266,259,253,247,241,235,230,224,219,213,208,203,198,194,189,184,180,176,171,167,163,159,155,151,148,144,141,137,134,131,127,124,121,119,116,113,110,107,105,102,100,97,95,92,90,88,86,84,81,79,77,76,74,72,70,68,67,65,63,62,60,59,57,56,54,53,52,50,49,48,46,45,44
487,475,464,453,442,432,421,411,401,392,382,373,365,355,347,338,331,323,315,307,300,293,286,279,272,266,259,253,247,241,235,230,224,219,213,208,203,198,194,189,184,180,176,171,167,163,159,155,151,148,144,141,137,134,131,127,124,121,119,116,113,110,107,105,102,100,97,95,92,90,88,86,84,81,79,77,76,74,72,70,68,67,65,63,62,60,59,57,56,54,53,52
487,475,464,453,442,432,421,411,401,392,382,373,365,355,347,338,331,323,315,307,300,293,286,279,272,266,259,253,247,241,235,230,224,219,213,208,203,198,194,189,184,180,176,171,167,163,159,155,151,148,144,141,137,134,131,127,124,121,119,116,113,110,107,105,102,100,97,95,92,90,88,86,84,81,79,77,76,74,72,70,68,67,65,63,62,60,59,57,56,54,53,52,50,49,48,46
487,475,464,453,442,432,421,411,401,392,382,373,365,355,347,338,331,323,315,307,300,293,286,279,272,266,259,253,247,241,235,230,224,219,213,208,203,198,194,189,184,180,176,171,167,163,159,155,151,148,144,141,137,134,131,127,124,121,119,116,113,110,107,105,102,100,97,95,92,90,88,86,84,81,79,77,76,74,72,70,68,67,65,63,62,60,59,57,56,54,53,52,50,49,48,46,45,44,43,42
487,475,464,453,442,432,421,411,401,392,382,373,365,355,347,338,331,323,315,307,300,293,286,279,272,266,259,253,247,241,235,230,224,219,213,208,203,198,194,189,184,180,176,171,167,163,159,155,151,148,144,141,137,134,131,127,124,121,119,116,113,110,107,105,102,100,97,95,92,90,88,86,84,81,79,77,76,74,72,70,68,67,65,63,62,60,59,57,56,54,53,52,50,49,48
487,475,464,453,442,432,421,411,401,392,382,373,365,355,347,338,331,323,315,307,300,293,286,279,272,266,259,253,247,241,235,230,224,219,213,208,203,198,194,189,184,180,176,171,167,163,159,155,151,148,144,141,137,134,131,127,124,121,119,116,113,110,107,105,102,100,97,95,92,90,88,86,84,81,79,77,76,74,72,70,68,67,65,63,62,60,59,57,56,54,53,52,50,49,48,46,45,44,43,42
487,475,464,453,442,432,421,411,401,392,382,373,365,355,347,338,331,323,315,307,300,293,286,279,272,266,259,253,247,241,235,230,224,219,213,208,203,198,194,189,184,180,176,171,167,163,159,155,151,148,144,141,137,134,131,127,124,121,119,116,113,110,107,105,102,100,97,95,92,90,88,86,84,81,79,77,76,74,72,70,68,67,65,63,62,60,59,57,56,54
487,475,464,453,442,432,421,411,401,392,382,373,365,355,347,338,331,323,315,307,300,293,286,279,272,266,259,253,247,241,235,230,224,219,213,208,203,198,194,189,184,180,176,171,167,163,159,155,151,148,144,141,137,134,131,127,124,121,119,116,113,110,107,105,102,100,97,95,92,90,88,86,84,81,79,77,76,74,72,70,68,67,65,63,62,60,59,57,56,54,53,52,50,49,48,46,45,44
487,475,464,453,442,432,421,411,401,392,382,373,365,355,347,338,331,323,315,307,300,293,286,279,272,266,259,253,247,241,235,230,224,219,213,208,203,198,194,189,184,180,176,171,167,163,159,155,151,148,144,141,137,134,131,127,124,121,119,116,113,110,107,105,102,100,97,95,92,90,88,86,84,81,79,77,76,74,72,70,68,67,65,63,62,60,59,57,56,54,53,52,50,49,48,46,45,44,43,42
487,475,464,453,442,432,421,411,401,392,382,373,365,355,347,338,331,323,315,307,300,293,286,279,272,266,259,253,247,241,235,230,224,219,213,208,203,198,194,189,184,180,176,171,167,163,159,155,151,148,144,141,137,134,131,127,124,121,119,116,113,110,107,105,102,100,97,95,92,90,88,86,84,81,79,77,76,74,72,70,68,67,65,63,62,60,59
487,475,464,453,442,432,421,411,401,392,382,373,365,355,347,338,331,323,315,307,300,293,286,279,272,266,259,253,247,241,235,230,224,219,213,208,203,198,194,189,184,180,176,171,167,163,159,155,151,148,144,141,137,134,131,127,124,121,119,116,113,110,107,105,102,100,97,95,92,90,88,86,84,81,79,77,76,74,72,70,68,67,65,63,62,60,59,57,56,54,53,52,50,49,48
487,475,464,453,442,432,421,411,401,392,382,373,365,355,347,338,331,323,315,307,300,293,286,279,272,266,259,253,247,241,235,230,224,219,213,208,203,198,194,189,184,180,176,171,167,163,159,155,151,148,144,141,137,134,131,127,124,121,119,116,113,110,107,105,102,100,97,95,92,90,88,86,84,81,79,77,76,74,72,70,68,67,65,63,62,60,59,57,56,54,53,52,50,49,48,46,45,44,43,42
487,475,464,453,442,432,421,411,401,392,382,373,365,355,347,338,331,323,315,307,300,293,286,279,272,266,259,253,247,241,235,230,224,219,213,208,203,198,194,189,184,180,176,171,167,163,159,155,151,148,144,141,137,134,131,127,124,121,119,116,113,110,107,105,102,100,97,95,92,90,88,86,84,81,79,77,76,74,72,70,68,67,65,63,62,60,59,57,56,54,53,52,50,49,48,46
487,475,464,453,442,432,421,411,401,392,382,373,365,355,347,338,331,323,315,307,300,293,286,279,272,266,259,253,247,241,235,230,224,219,213,208,203,198,194,189,184,180,176,171,167,163,159,155,151,148,144,141,137,134,131,127,124,121,119,116,113,110,107,105,102,100,97,95,92,90,88,86,84,81,79,77,76,74,72,70,68,67,65,63,62,60,59,57,56,54,53,52,50,49,48,46
487,475,464,453,442,432,421,411,401,392,382,373,365,355,347,338,331,323,315,307,300,293,286,279,272,266,259,253,247,241,235,230,224,219,213,208,203,198,194,189,184,180,176,171,167,163,159,155,151,148,144,141,137,134,131,127,124,121,119,116,113,110,107,105,102,100,97,95,92,90,88,86,84,81,79,77,76,74,72,70,68,67,65,63,62,60,59
487,475,464,453,442,432,421,411,401,392,382,373,365,355,347,338,331,323,315,307,300,293,286,279,272,266,259,253,247,241,235,230,224,219,213,208,203,198,194,189,184,180,176,171,167,163,159,155,151,148,144,141,137,134,131,127,124,121,119,116,113,110,107,105,102,100,97,95,92,90,88,86,84,81,79,77,76,74,72,70,68,67,65,63,62,60,59,57,56,54,53,52,50,49,48,46,45,44,43,42
487,475,464,453,442,432,421,411,401,392,382,373,365,355,347,338,331,323,315,307,300,293,286,279,272,266,259,253,247,241,235,230,224,219,213,208,203,198,194,189,184,180,176,171,167,163,159,155,151,148,144,141,137,134,131,127,124,121,119,116,113,110,107,105,102,100,97,95,92,90,88,86,84,81,79,77,76,74,72,70,68,67,65,63,62,60,59,57,56,54,53,52,50,49,48,46,45,44
487,475,464,453,442,432,421,411,401,392,382,373,365,355,347,338,331,323,315,307,300,293,286,279,272,266,259,253,247,241,235,230,224,219,213,208,203,198,194,189,184,180,176,171,167,163,159,155,151,148,144,141,137,134,131,127,124,121,119,116,113,110,107,105,102,100,97,95,92,90,88,86,84,81,79,77,76,74,72,70,68,67,65,63,62,60,59,57,56,54,53,52,50,49,48,46,45,44,43,42
487,475,464,453,442,432,421,411,401,392,382,373,365,355,347,338,331,323,315,307,300,293,286,279,272,266,259,253,247,241,235,230,224,219,213,208,203,198,194,189,184,180,176,171,167,163,159,155,151,148,144,141,137,134,131,127,124,121,119,116,113,110,107,105,102,100,97,95,92,90,88,86,84,81,79,77,76,74,72,70,68,67,65,63,62,60,59,57,56,54,53,52,50,49,48,46,45
487,475,464,453,442,432,421,411,401,392,382,373,365,355,347,338,331,323,315,307,300,293,286,279,272,266,259,253,247,241,235,230,224,219,213,208,203,198,194,189,184,180,176,171,167,163,159,155,151,148,144,141,137,134,131,127,124,121,119,116,113,110,107,105,102,100,97,95,92,90,88,86,84,81,79,77,76,74,72,70,68,67,65,63,62,60,59,57,56
487,475,464,453,442,432,421,411,401,392,382,373,365,355,347,338,331,323,315,307,300,293,286,279,272,266,259,253,247,241,235,230,224,219,213,208,203,198,194,189,184,180,176,171,167,163,159,155,151,148,144,141,137,134,131,127,124,121,119,116,113,110,107,105,102,100,97,95,92,90,88,86,84,81,79,77,76,74,72,70,68,67,65,63,62,60,59,57,56,54,53,52,50,49,48,46
487,475,464,453,442,432,421,411,401,392,382,373,365,355,347,338,331,323,315,307,300,293,286,279,272,266,259,253,247,241,235,230,224,219,213,208,203,198,194,189,184,180,176,171,167,163,159,155,151,148,144,141,137,134,131,127,124,121,119,116,113,110,107,105,102,100,97,95,92,90,88,86,84,81,79,77,76,74,72,70,68,67,65,63,62,60,59,57,56,54,53,52,50,49,48,46
487,475,464,453,442,432,421,411,401,392,382,373,365,355,347,338,331,323,315,307,300,293,286,279,272,266,259,253,247,241,235,230,224,219,213,208,203,198,194,189,184,180,176,171,167,163,159,155,151,148,144,141,137,134,131,127,124,121,119,116,113,110,107,105,102,100,97,95,92,90,88,86,84,81,79,77,76,74,72,70,68,67,65,63,62,60,59,57,56,54,53,52,50,49,48,46,45,44,43,42
487,475,464,453,442,432,421,411,401,392,382,373,365,355,347,338,331,323,315,307,300,293,286,279,272,266,259,253,247,241,235,230,224,219,213,208,203,198,194,189,184,180,176,171,167,163,159,155,151,148,144,141,137,134,131,127,124,121,119,116,113,110,107,105,102,100,97,95,92,90,88,86,84,81,79,77,76,74,72,70,68,67,65,63,62,60,59,57,56,54,53,52
487,475,464,453,442,432,421,411,401,392,382,373,365,355,347,338,331,323,315,307,300,293,286,279,272,266,259,253,247,241,235,230,224,219,213,208,203,198,194,189,184,180,176,171,167,163,159,155,151,148,144,141,137,134,131,127,124,121,119,116,113,110,107,105,102,100,97,95,92,90,88,86,84,81,79,77,76,74,72,70,68,67,65,63,62,60,59,57,56,54,53,52,50,49,48,46,45,44,43,42
487,475,464,453,442,432,421,411,401,392,382,373,365,355,347,338,331,323,315,307,300,293,286,279,272,266,259,253,247,241,235,230,224,219,213,208,203,198,194,189,184,180,176,171,167,163,159,155,151,148,144,141,137,134,131,127,124,121,119,116,113,110,107,105,102,100,97,95,92,90,88,86,84,81,79,77,76,74,72,70,68,67,65,63,62,60,59,57,56,54,53,52,50,49,48
487,475,464,453,442,432,421,411,401,392,382,373,365,355,347,338,331,323,315,307,300,293,286,279,272,266,259,253,247,241,235,230,224,219,213,208,203,198,194,189,184,180,176,171,167,163,159,155,151,148,144,141,137,134,131,127,124,121,119,116,113,110,107,105,102,100,97,95,92,90,88,86,84,81,79,77,76,74,72,70,68,67,65,63,62,60,59,57,56,54,53,52,50,49,48,46,45,44,43,42
487,475,464,453,442,432,421,411,401,392,382,373,365,355,347,338,331,323,315,307,300,293,286,279,272,266,259,253,247,241,235,230,224,219,213,208,203,198,194,189,184,180,176,171,167,163,159,155,151,148,144,141,137,134,131,127,124,121,119,116,113,110,107,105,102,100,97,95,92,90,88,86,84,81,79,77,76,74,72,70,68,67,65,63,62,60,59,57,56,54,53,52,50,49,48
487,475,464,453,442,432,421,411,401,392,382,373,365,355,347,338,331,323,315,307,300,293,286,279,272,266,259,253,247,241,235,230,224,219,213,208,203,198,194,189,184,180,176,171,167,163,159,155,151,148,144,141,137,134,131,127,124,121,119,116,113,110,107,105,102,100,97,95,92,90,88,86,84,81,79,77,76,74,72,70,68,67,65,63,62,60,59,57,56,54,53,52,50
487,475,464,453,442,432,421,411,401,392,382,373,365,355,347,338,331,323,315,307,300,293,286,279,272,266,259,253,247,241,235,230,224,219,213,208,203,198,194,189,184,180,176,171,167,163,159,155,151,148,144,141,137,134,131,127,124,121,119,116,113,110,107,105,102,100,97,95,92,90,88,86,84,81,79,77,76,74,72,70,68,67,65,63,62,60,59,57,56,54,53,52,50,49,48,46,45,44,43
487,475,464,453,442,432,421,411,401,392,382,373,365,355,347,338,331,323,315,307,300,293,286,279,272,266,259,253,247,241,235,230,224,219,213,208,203,198,194,189,184,180,176,171,167,163,159,155,151,148,144,141,137,134,131,127,124,121,119,116,113,110,107,105,102,100,97,95,92,90,88,86,84,81,79,77,76,74,72,70,68,67,65,63,62,60,59,57,56,54,53,52,50,49,48,46
487,475,464,453,442,432,421,411,401,392,382,373,365,355,347,338,331,323,315,307,300,293,286,279,272,266,259,253,247,241,235,230,224,219,213,208,203,198,194,189,184,180,176,171,167,163,159,155,151,148,144,141,137,134,131,127,124,121,119,116,113,110,107,105,102,100,97,95,92,90,88,86,84,81,79,77,76,74,72,70,68,67,65,63,62,60,59,57,56,54,53,52,50,49,48
487,475,464,453,442,432,421,411,401,392,382,373,365,355,347,338,331,323,315,307,300,293,286,279,272,266,259,253,247,241,235,230,224,219,213,208,203,198,194,189,184,180,176,171,167,163,159,155,151,148,144,141,137,134,131,127,124,121,119,116,113,110,107,105,102,100,97,95,92,90,88,86,84,81,79,77,76,74,72,70,68,67,65,63,62,60,59,57,56,54,53,52,50
487,475,464,453,442,432,421,411,401,392,382,373,365,355,347,338,331,323,315,307,300,293,286,279,272,266,259,253,247,241,235,230,224,219,213,208,203,198,194,189,184,180,176,171,167,163,159,155,151,148,144,141,137,134,131,127,124,121,119,116,113,110,107,105,102,100,97,95,92,90,88,86,84,81,79,77,76,74,72,70,68,67,65,63,62,60,59,57,56,54,53,52,50,49,48,46,45,44,43,42
487,475,464,453,442,432,421,411,401,392,382,373,365,355,347,338,331,323,315,307,300,293,286,279,272,266,259,253,247,241,235,230,224,219,213,208,203,198,194,189,184,180,176,171,167,163,159,155,151,148,144,141,137,134,131,127,124,121,119,116,113,110,107,105,102,100,97,95,92,90,88,86,84,81,79,77,76,74,72,70,68,67,65,63,62,60,59,57,56
487,475,464,453,442,432,421,411,401,392,382,373,365,355,347,338,331,323,315,307,300,293,286,279,272,266,259,253,247,241,235,230,224,219,213,208,203,198,194,189,184,180,176,171,167,163,159,155,151,148,144,141,137,134,131,127,124,121,119,116,113,110,107,105,102,100,97,95,92,90,88,86,84,81,79,77,76,74,72,70,68,67,65,63,62,60,59,57
487,475,464,453,442,432,421,411,401,392,382,373,365,355,347,338,331,323,315,307,300,293,286,279,272,266,259,253,247,241,235,230,224,219,213,208,203,198,194,189,184,180,176,171,167,163,159,155,151,148,144,141,137,134,131,127,124,121,119,116,113,110,107,105,102,100,97,95,92,90,88,86,84,81,79,77,76,74,72,70,68,67,65,63,62,60,59,57,56,54,53,52,50,49,48,46
487,475,464,453,442,432,421,411,401,392,382,373,365,355,347,338,331,323,315,307,300,293,286,279,272,266,259,253,247,241,235,230,224,219,213,208,203,198,194,189,184,180,176,171,167,163,159,155,151,148,144,141,137,134,131,127,124,121,119,116,113,110,107,105,102,100,97,95,92,90,88,86,84,81,79,77,76,74,72,70,68,67,65,63,62,60,59,57,56,54,53,52,50,49,48,46,45,44,43,42
487,475,464,453,442,432,421,411,401,392,382,373,365,355,347,338,331,323,315,307,300,293,286,279,272,266,259,253,247,241,235,230,224,219,213,208,203,198,194,189,184,180,176,171,167,163,159,155,151,148,144,141,137,134,131,127,124,121,119,116,113,110,107,105,102,100,97,95,92,90,88,86,84,81,79,77,76,74,72,70,68,67,65,63,62,60,59,57,56,54,53,52,50,49,48,46,45,44,43,42
487,475,464,453,442,432,421,411,401,392,382,373,365,355,347,338,331,323,315,307,300,293,286,279,272,266,259,253,247,241,235,230,224,219,213,208,203,198,194,189,184,180,176,171,167,163,159,155,151,148,144,141,137,134,131,127,124,121,119,116,113,110,107,105,102,100,97,95,92,90,88,86,84,81,79,77,76,74,72,70,68,67,65,63,62,60,59,57,56,54,53,52,50,49,48,46,45,44,43
487,475,464,453,442,432,421,411,401,392,382,373,365,355,347,338,331,323,315,307,300,293,286,279,272,266,259,253,247,241,235,230,224,219,213,208,203,198,194,189,184,180,176,171,167,163,159,155,151,148,144,141,137,134,131,127,124,121,119,116,113,110,107,105,102,100,97,95,92,90,88,86,84,81,79,77,76,74,72,70,68,67,65,63,62,60,59,57,56,54,53,52,50,49,48,46
487,475,464,453,442,432,421,411,401,392,382,373,365,355,347,338,331,323,315,307,300,293,286,279,272,266,259,253,247,241,235,230,224,219,213,208,203,198,194,189,184,180,176,171,167,163,159,155,151,148,144,141,137,134,131,127,124,121,119,116,113,110,107,105,102,100,97,95,92,90,88,86,84,81,79,77,76,74,72,70,68,67,65,63,62,60,59,57,56,54,53,52,50,49,48,46,45
487,475,464,453,442,432,421,411,401,392,382,373,365,355,347,338,331,323,315,307,300,293,286,279,272,266,259,253,247,241,235,230,224,219,213,208,203,198,194,189,184,180,176,171,167,163,159,155,151,148,144,141,137,134,131,127,124,121,119,116,113,110,107,105,102,100,97,95,92,90,88,86,84,81,79,77,76,74,72,70,68,67,65,63,62,60,59,57,56,54,53,52,50,49,48,46,45,44,43,42
487,475,464,453,442,432,421,411,401,392,382,373,365,355,347,338,331,323,315,307,300,293,286,279,272,266,259,253,247,241,235,230,224,219,213,208,203,198,194,189,184,180,176,171,167,163,159,155,151,148,144,141,137,134,131,127,124,121,119,116,113,110,107,105,102,100,97,95,92,90,88,86,84,81,79,77,76,74,72,70,68,67,65,63,62,60,59,57,56,54,53,52,50,49
487,475,464,453,442,432,421,411,401,392,382,373,365,355,347,338,331,323,315,307,300,293,286,279,272,266,259,253,247,241,235,230,224,219,213,208,203,198,194,189,184,180,176,171,167,163,159,155,151,148,144,141,137,134,131,127,124,121,119,116,113,110,107,105,102,100,97,95,92,90,88,86,84,81,79,77,76,74,72,70,68,67,65,63,62,60,59,57,56,54,53,52,50,49,48
487,475,464,453,442,432,421,411,401,392,382,373,365,355,347,338,331,323,315,307,300,293,286,279,272,266,259,253,247,241,235,230,224,219,213,208,203,198,194,189,184,180,176,171,167,163,159,155,151,148,144,141,137,134,131,127,124,121,119,116,113,110,107,105,102,100,97,95,92,90,88,86,84,81,79,77,76,74,72,70,68,67,65,63,62,60,59,57,56,54,53,52,50,49,48,46,45,44,43,42
487,475,464,453,442,432,421,411,401,392,382,373,365,355,347,338,331,323,315,307,300,293,286,279,272,266,259,253,247,241,235,230,224,219,213,208,203,198,194,189,184,180,176,171,167,163,159,155,151,148,144,141,137,134,131,127,124,121,119,116,113,110,107,105,102,100,97,95,92,90,88,86,84,81,79,77,76,74,72,70,68,67,65,63,62,60,59,57,56,54,53,52,50,49,48,46,45,44,43,42
487,475,464,453,442,432,421,411,401,392,382,373,365,355,347,338,331,323,315,307,300,293,286,279,272,266,259,253,247,241,235,230,224,219,213,208,203,198,194,189,184,180,176,171,167,163,159,155,151,148,144,141,137,134,131,127,124,121,119,116,113,110,107,105,102,100,97,95,92,90,88,86,84,81,79,77,76,74,72,70,68,67,65,63,62,60,59,57,56,54,53,52,50,49,48,46,45
487,475,464,453,442,432,421,411,401,392,382,373,365,355,347,338,331,323,315,307,300,293,286,279,272,266,259,253,247,241,235,230,224,219,213,208,203,198,194,189,184,180,176,171,167,163,159,155,151,148,144,141,137,134,131,127,124,121,119,116,113,110,107,105,102,100,97,95,92,90,88,86,84,81,79,77,76,74,72,70,68,67,65,63,62,60,59,57,56,54,53,52,50,49,48,46,45,44,43,42
487,475,464,453,442,432,421,411,401,392,382,373,365,355,347,338,331,323,315,307,300,293,286,279,272,266,259,253,247,241,235,230,224,219,213,208,203,198,194,189,184,180,176,171,167,163,159,155,151,148,144,141,137,134,131,127,124,121,119,116,113,110,107,105,102,100,97,95,92,90,88,86,84,81,79,77,76,74,72,70,68,67,65,63,62,60,59,57,56,54,53,52,50,49,48,46,45,44,43,42
487,475,464,453,442,432,421,411,401,392,382,373,365,355,347,338,331,323,315,307,300,293,286,279,272,266,259,253,247,241,235,230,224,219,213,208,203,198,194,189,184,180,176,171,167,163,159,155,151,148,144,141,137,134,131,127,124,121,119,116,113,110,107,105,102,100,97,95,92,90,88,86,84,81,79,77,76,74,72,70,68,67,65,63,62,60,59,57,56,54,53,52,50,49,48,46,45,44
487,475,464,453,442,432,421,411,401,392,382,373,365,355,347,338,331,323,315,307,300,293,286,279,272,266,259,253,247,241,235,230,224,219,213,208,203,198,194,189,184,180,176,171,167,163,159,155,151,148,144,141,137,134,131,127,124,121,119,116,113,110,107,105,102,100,97,95,92,90,88,86,84,81,79,77,76,74,72,70,68,67,65,63,62,60,59,57,56,54,53,52,50,49,48,46,45,44,43,42
487,475,464,453,442,432,421,411,401,392,382,373,365,355,347,338,331,323,315,307,300,293,286,279,272,266,259,253,247,241,235,230,224,219,213,208,203,198,194,189,184,180,176,171,167,163,159,155,151,148,144,141,137,134,131,127,124,121,119,116,113,110,107,105,102,100,97,95,92,90,88,86,84,81,79,77,76,74,72,70,68,67,65,63,62,60,59,57,56,54,53,52,50,49,48,46,45,44,43
487,475,464,453,442,432,421,411,401,392,382,373,365,355,347,338,331,323,315,307,300,293,286,279,272,266,259,253,247,241,235,230,224,219,213,208,203,198,194,189,184,180,176,171,167,163,159,155,151,148,144,141,137,134,131,127,124,121,119,116,113,110,107,105,102,100,97,95,92,90,88,86,84,81,79,77,76,74,72,70,68,67,65,63,62,60,59,57,56,54,53,52,50,49,48
487,475,464,453,442,432,421,411,401,392,382,373,365,355,347,338,331,323,315,307,300,293,286,279,272,266,259,253,247,241,235,230,224,219,213,208,203,198,194,189,184,180,176,171,167,163,159,155,151,148,144,141,137,134,131,127,124,121,119,116,113,110,107,105,102,100,97,95,92,90,88,86,84,81,79,77,76,74,72,70,68,67,65,63,62,60,59,57,56,54,53,52
487,475,464,453,442,432,421,411,401,392,382,373,365,355,347,338,331,323,315,307,300,293,286,279,272,266,259,253,247,241,235,230,224,219,213,208,203,198,194,189,184,180,176,171,167,163,159,155,151,148,144,141,137,134,131,127,124,121,119,116,113,110,107,105,102,100,97,95,92,90,88,86,84,81,79,77,76,74,72
487,475,464,453,442,432,421,411,401,392,382,373,365,355,347,338,331,323,315,307,300,293,286,279,272,266,259,253,247,241,235,230,224,219,213,208,203,198,194,189,184,180,176,171,167,163,159,155,151,148,144,141,137,134,131,127,124,121,119,116,113,110,107,105,102,100,97,95,92,90,88,86,84,81,79,77,76,74,72,70,68,67,65,63,62,60,59,57,56,54,53,52,50,49,48,46,45,44,43,42
487,475,464,453,442,432,421,411,401,392,382,373,365,355,347,338,331,323,315,307,300,293,286,279,272,266,259,253,247,241,235,230,224,219,213,208,203,198,194,189,184,180,176,171,167,163,159,155,151,148,144,141,137,134,131,127,124,121,119,116,113,110,107,105,102,100,97,95,92,90,88,86,84,81,79,77,76,74,72,70,68,67,65,63,62,60,59,57,56,54,53,52,50,49,48,46,45,44,43,42
487,475,464,453,442,432,421,411,401,392,382,373,365,355,347,338,331,323,315,307,300,293,286,279,272,266,259,253,247,241,235,230,224,219,213,208,203,198,194,189,184,180,176,171,167,163,159,155,151,148,144,141,137,134,131,127,124,121,119,116,113,110,107,105,102,100,97,95,92,90,88,86,84,81,79,77,76,74,72,70,68,67,65,63,62,60,59,57,56,54,53,52,50,49,48,46,45,44,43,42
487,475,464,453,442,432,421,411,401,392,382,373,365,355,347,338,331,323,315,307,300,293,286,279,272,266,259,253,247,241,235,230,224,219,213,208,203,198,194,189,184,180,176,171,167,163,159,155,151,148,144,141,137,134,131,127,124,121,119,116,113,110,107,105,102,100,97,95,92,90,88,86,84,81,79,77,76,74,72,70,68,67,65,63,62,60,59,57,56,54,53,52,50,49,48,46,45,44,43,42
487,475,464,453,442,432,421,411,401,392,382,373,365,355,347,338,331,323,315,307,300,293,286,279,272,266,259,253,247,241,235,230,224,219,213,208,203,198,194,189,184,180,176,171,167,163,159,155,151,148,144,141,137,134,131,127,124,121,119,116,113,110,107,105,102,100,97,95,92,90,88,86,84,81,79,77,76,74,72,70,68,67,65,63,62,60,59,57,56,54,53,52,50,49,48,46,45,44,43
487,475,464,453,442,432,421,411,401,392,382,373,365,355,347,338,331,323,315,307,300,293,286,279,272,266,259,253,247,241,235,230,224,219,213,208,203,198,194,189,184,180,176,171,167,163,159,155,151,148,144,141,137,134,131,127,124,121,119,116,113,110,107,105,102,100,97,95,92,90,88,86,84,81,79,77,76,74,72,70,68,67,65,63,62,60,59,57,56,54,53
487,475,464,453,442,432,421,411,401,392,382,373,365,355,347,338,331,323,315,307,300,293,286,279,272,266,259,253,247,241,235,230,224,219,213,208,203,198,194,189,184,180,176,171,167,163,159,155,151,148,144,141,137,134,131,127,124,121,119,116,113,110,107,105,102,100,97,95,92,90,88,86,84,81,79,77,76,74,72,70,68,67,65,63,62,60,59,57,56,54,53,52,50
487,475,464,453,442,432,421,411,401,392,382,373,365,355,347,338,331,323,315,307,300,293,286,279,272,266,259,253,247,241,235,230,224,219,213,208,203,198,194,189,184,180,176,171,167,163,159,155,151,148,144,141,137,134,131,127,124,121,119,116,113,110,107,105,102,100,97,95,92,90,88,86,84,81,79,77,76,74,72,70,68,67,65,63,62,60,59,57,56,54
487,475,464,453,442,432,421,411,401,392,382,373,365,355,347,338,331,323,315,307,300,293,286,279,272,266,259,253,247,241,235,230,224,219,213,208,203,198,194,189,184,180,176,171,167,163,159,155,151,148,144,141,137,134,131,127,124,121,119,116,113,110,107,105,102,100,97,95,92,90,88,86,84,81,79,77,76,74,72,70,68,67,65,63,62,60,59,57,56,54,53,52,50,49,48
487,475,464,453,442,432,421,411,401,392,382,373,365,355,347,338,331,323,315,307,300,293,286,279,272,266,259,253,247,241,235,230,224,219,213,208,203,198,194,189,184,180,176,171,167,163,159,155,151,148,144,141,137,134,131,127,124,121,119,116,113,110,107,105,102,100,97,95,92,90,88,86,84,81,79,77,76,74,72,70,68,67,65,63,62,60,59,57,56,54,53,52,50,49,48,46
487,475,464,453,442,432,421,411,401,392,382,373,365,355,347,338,331,323,315,307,300,293,286,279,272,266,259,253,247,241,235,230,224,219,213,208,203,198,194,189,184,180,176,171,167,163,159,155,151,148,144,141,137,134,131,127,124,121,119,116,113,110,107,105,102,100,97,95,92,90,88,86,84,81,79,77,76,74,72,70,68,67,65,63,62,60,59,57,56,54,53,52,50,49,48,46,45,44,43,42
487,475,464,453,442,432,421,411,401,392,382,373,365,355,347,338,331,323,315,307,300,293,286,279,272,266,259,253,247,241,235,230,224,219,213,208,203,198,194,189,184,180,176,171,167,163,159,155,151,148,144,141,137,134,131,127,124,121,119,116,113,110,107,105,102,100,97,95,92,90,88,86,84,81,79,77,76,74,72,70,68,67,65,63,62,60,59,57,56,54,53,52,50,49,48,46,45,44,43,42
487,475,464,453,442,432,421,411,401,392,382,373,365,355,347,338,331,323,315,307,300,293,286,279,272,266,259,253,247,241,235,230,224,219,213,208,203,198,194,189,184,180,176,171,167,163,159,155,151,148,144,141,137,134,131,127,124,121,119,116,113,110,107,105,102,100,97,95,92,90,88,86,84,81,79,77,76,74,72,70,68,67,65,63,62,60,59,57,56,54,53,52,50
487,475,464,453,442,432,421,411,401,392,382,373,365,355,347,338,331,323,315,307,300,293,286,279,272,266,259,253,247,241,235,230,224,219,213,208,203,198,194,189,184,180,176,171,167,163,159,155,151,148,144,141,137,134,131,127,124,121,119,116,113,110,107,105,102,100,97,95,92,90,88,86,84,81,79,77,76,74,72,70,68,67,65,63,62,60,59,57,56,54,53,52,50
487,475,464,453,442,432,421,411,401,392,382,373,365,355,347,338,331,323,315,307,300,293,286,279,272,266,259,253,247,241,235,230,224,219,213,208,203,198,194,189,184,180,176,171,167,163,159,155,151,148,144,141,137,134,131,127,124,121,119,116,113,110,107,105,102,100,97,95,92,90,88,86,84,81,79,77,76,74,72,70,68,67,65,63,62,60,59,57,56,54,53,52,50,49
487,475,464,453,442,432,421,411,401,392,382,373,365,355,347,338,331,323,315,307,300,293,286,279,272,266,259,253,247,241,235,230,224,219,213,208,203,198,194,189,184,180,176,171,167,163,159,155,151,148,144,141,137,134,131,127,124,121,119,116,113,110,107,105,102,100,97,95,92,90,88,86,84,81,79,77,76,74,72,70,68,67,65,63,62,60,59,57,56,54,53,52,50,49,48,46,45,44
487,475,464,453,442,432,421,411,401,392,382,373,365,355,347,338,331,323,315,307,300,293,286,279,272,266,259,253,247,241,235,230,224,219,213,208,203,198,194,189,184,180,176,171,167,163,159,155,151,148,144,141,137,134,131,127,124,121,119,116,113,110,107,105,102,100,97,95,92,90,88,86,84,81,79,77,76,74,72,70,68,67,65,63,62,60,59,57,56,54,53,52,50,49,48,46,45,44,43,42
487,475,464,453,442,432,421,411,401,392,382,373,365,355,347,338,331,323,315,307,300,293,286,279,272,266,259,253,247,241,235,230,224,219,213,208,203,198,194,189,184,180,176,171,167,163,159,155,151,148,144,141,137,134,131,127,124,121,119,116,113,110,107,105,102,100,97,95,92,90,88,86,84,81,79,77,76,74,72,70,68,67,65,63,62,60,59,57
487,475,464,453,442,432,421,411,401,392,382,373,365,355,347,338,331,323,315,307,300,293,286,279,272,266,259,253,247,241,235,230,224,219,213,208,203,198,194,189,184,180,176,171,167,163,159,155,151,148,144,141,137,134,131,127,124,121,119,116,113,110,107,105,102,100,97,95,92,90,88,86,84,81,79,77,76,74,72,70,68,67,65,63,62,60,59,57,56,54,53,52,50,49
487,475,464,453,442,432,421,411,401,392,382,373,365,355,347,338,331,323,315,307,300,293,286,279,272,266,259,253,247,241,235,230,224,219,213,208,203,198,194,189,184,180,176,171,167,163,159,155,151,148,144,141,137,134,131,127,124,121,119,116,113,110,107,105,102,100,97,95,92,90,88,86,84,81,79,77,76,74,72,70,68,67,65,63,62,60,59,57,56,54,53,52,50,49
487,475,464,453,442,432,421,411,401,392,382,373,365,355,347,338,331,323,315,307,300,293,286,279,272,266,259,253,247,241,235,230,224,219,213,208,203,198,194,189,184,180,176,171,167,163,159,155,151,148,144,141,137,134,131,127,124,121,119,116,113,110,107,105,102,100,97,95,92,90,88,86,84,81,79,77,76,74,72,70,68,67,65,63,62,60,59,57
487,475,464,453,442,432,421,411,401,392,382,373,365,355,347,338,331,323,315,307,300,293,286,279,272,266,259,253,247,241,235,230,224,219,213,208,203,198,194,189,184,180,176,171,167,163,159,155,151,148,144,141,137,134,131,127,124,121,119,116,113,110,107,105,102,100,97,95,92,90,88,86,84,81,79,77,76,74,72,70,68,67,65,63,62,60,59,57,56,54,53,52,50,49,48,46,45,44,43,42
487,475,464,453,442,432,421,411,401,392,382,373,365,355,347,338,331,323,315,307,300,293,286,279,272,266,259,253,247,241,235,230,224,219,213,208,203,198,194,189,184,180,176,171,167,163,159,155,151,148,144,141,137,134,131,127,124,121,119,116,113,110,107,105,102,100,97,95,92,90,88,86,84,81,79,77,76,74,72,70,68,67,65,63,62,60,59,57,56,54,53,52,50,49,48,46,45,44
487,475,464,453,442,432,421,411,401,392,382,373,365,355,347,338,331,323,315,307,300,293,286,279,272,266,259,253,247,241,235,230,224,219,213,208,203,198,194,189,184,180,176,171,167,163,159,155,151,148,144,141,137,134,131,127,124,121,119,116,113,110,107,105,102,100,97,95,92,90,88,86,84,81,79,77,76,74,72,70,68,67,65,63,62,60,59,57,56
487,475,464,453,442,432,421,411,401,392,382,373,365,355,347,338,331,323,315,307,300,293,286,279,272,266,259,253,247,241,235,230,224,219,213,208,203,198,194,189,184,180,176,171,167,163,159,155,151,148,144,141,137,134,131,127,124,121,119,116,113,110,107,105,102,100,97,95,92,90,88,86,84,81,79,77,76,74,72,70,68,67,65,63,62,60,59,57,56,54,53,52
487,475,464,453,442,432,421,411,401,392,382,373,365,355,347,338,331,323,315,307,300,293,286,279,272,266,259,253,247,241,235,230,224,219,213,208,203,198,194,189,184,180,176,171,167,163,159,155,151,148,144,141,137,134,131,127,124,121,119,116,113,110,107,105,102,100,97,95,92,90,88,86,84,81,79,77,76,74,72,70,68,67,65,63,62,60,59,57,56,54,53,52,50,49,48,46,45,44,43
487,475,464,453,442,432,421,411,401,392,382,373,365,355,347,338,331,323,315,307,300,293,286,279,272,266,259,253,247,241,235,230,224,219,213,208,203,198,194,189,184,180,176,171,167,163,159,155,151,148,144,141,137,134,131,127,124,121,119,116,113,110,107,105,102,100,97,95,92,90,88,86,84,81,79,77,76,74,72,70,68,67,65,63,62,60,59,57,56,54,53,52,50,49
487,475,464,453,442,432,421,411,401,392,382,373,365,355,347,338,331,323,315,307,300,293,286,279,272,266,259,253,247,241,235,230,224,219,213,208,203,198,194,189,184,180,176,171,167,163,159,155,151,148,144,141,137,134,131,127,124,121,119,116,113,110,107,105,102,100,97,95,92,90,88,86,84,81,79,77,76,74,72,70,68,67,65,63,62,60,59,57,56,54,53,52,50,49,48,46,45,44,43,42
487,475,464,453,442,432,421,411,401,392,382,373,365,355,347,338,331,323,315,307,300,293,286,279,272,266,259,253,247,241,235,230,224,219,213,208,203,198,194,189,184,180,176,171,167,163,159,155,151,148,144,141,137,134,131,127,124,121,119,116,113,110,107,105,102,100,97,95,92,90,88,86,84,81,79,77,76,74,72,70,68,67,65,63,62,60,59,57,56,54,53,52
487,475,464,453,442,432,421,411,401,392,382,373,365,355,347,338,331,323,315,307,300,293,286,279,272,266,259,253,247,241,235,230,224,219,213,208,203,198,194,189,184,180,176,171,167,163,159,155,151,148,144,141,137,134,131,127,124,121,119,116,113,110,107,105,102,100,97,95,92,90,88,86,84,81,79,77,76,74,72,70,68,67,65,63,62,60,59,57,56,54,53,52,50,49,48,46,45,44,43,42
487,475,464,453,442,432,421,411,401,392,382,373,365,355,347,338,331,323,315,307,300,293,286,279,272,266,259,253,247,241,235,230,224,219,213,208,203,198,194,189,184,180,176,171,167,163,159,155,151,148,144,141,137,134,131,127,124,121,119,116,113,110,107,105,102,100,97,95,92,90,88,86,84,81,79,77,76,74,72,70,68,67,65,63,62,60,59
487,475,464,453,442,432,421,411,401,392,382,373,365,355,347,338,331,323,315,307,300,293,286,279,272,266,259,253,247,241,235,230,224,219,213,208,203,198,194,189,184,180,176,171,167,163,159,155,151,148,144,141,137,134,131,127,124,121,119,116,113,110,107,105,102,100,97,95,92,90,88,86,84,81,79,77,76,74,72,70,68,67,65,63,62,60,59,57,56,54,53,52,50,49,48
487,475,464,453,442,432,421,411,401,392,382,373,365,355,347,338,331,323,315,307,300,293,286,279,272,266,259,253,247,241,235,230,224,219,213,208,203,198,194,189,184,180,176,171,167,163,159,155,151,148,144,141,137,134,131,127,124,121,119,116,113,110,107,105,102,100,97,95,92,90,88,86,84,81,79,77,76,74,72,70,68,67,65,63,62,60,59,57,56,54,53,52
487,475,464,453,442,432,421,411,401,392,382,373,365,355,347,338,331,323,315,307,300,293,286,279,272,266,259,253,247,241,235,230,224,219,213,208,203,198,194,189,184,180,176,171,167,163,159,155,151,148,144,141,137,134,131,127,124,121,119,116,113,110,107,105,102,100,97,95,92,90,88,86,84,81,79,77,76,74,72,70,68,67,65,63,62,60,59,57,56,54,53,52,50,49,48,46,45,44,43,42
487,475,464,453,442,432,421,411,401,392,382,373,365,355,347,338,331,323,315,307,300,293,286,279,272,266,259,253,247,241,235,230,224,219,213,208,203,198,194,189,184,180,176,171,167,163,159,155,151,148,144,141,137,134,131,127,124,121,119,116,113,110,107,105,102,100,97,95,92,90,88,86,84,81,79,77,76,74,72,70,68,67,65,63,62,60,59,57,56,54,53,52,50,49,48,46,45,44,43,42
487,475,464,453,442,432,421,411,401,392,382,373,365,355,347,338,331,323,315,307,300,293,286,279,272,266,259,253,247,241,235,230,224,219,213,208,203,198,194,189,184,180,176,171,167,163,159,155,151,148,144,141,137,134,131,127,124,121,119,116,113,110,107,105,102,100,97,95,92,90,88,86,84,81,79,77,76,74,72,70,68,67,65,63,62,60,59,57,56,54,53,52,50,49,48,46,45,44
487,475,464,453,442,432,421,411,401,392,382,373,365,355,347,338,331,323,315,307,300,293,286,279,272,266,259,253,247,241,235,230,224,219,213,208,203,198,194,189,184,180,176,171,167,163,159,155,151,148,144,141,137,134,131,127,124,121,119,116,113,110,107,105,102,100,97,95,92,90,88,86,84,81,79,77,76,74,72,70,68,67,65,63,62,60,59,57,56,54,53,52,50,49,48
487,475,464,453,442,432,421,411,401,392,382,373,365,355,347,338,331,323,315,307,300,293,286,279,272,266,259,253,247,241,235,230,224,219,213,208,203,198,194,189,184,180,176,171,167,163,159,155,151,148,144,141,137,134,131,127,124,121,119,116,113,110,107,105,102,100,97,95,92,90,88,86,84,81,79,77,76,74,72,70,68,67,65,63,62,60,59,57,56,54,53,52
487,475,464,453,442,432,421,411,401,392,382,373,365,355,347,338,331,323,315,307,300,293,286,279,272,266,259,253,247,241,235,230,224,219,213,208,203,198,194,189,184,180,176,171,167,163,159,155,151,148,144,141,137,134,131,127,124,121,119,116,113,110,107,105,102,100,97,95,92,90,88,86,84,81,79,77,76,74,72,70,68,67,65,63,62,60,59,57,56,54,53,52,50,49,48,46,45,44
487,475,464,453,442,432,421,411,401,392,382,373,365,355,347,338,331,323,315,307,300,293,286,279,272,266,259,253,247,241,235,230,224,219,213,208,203,198,194,189,184,180,176,171,167,163,159,155,151,148,144,141,137,134,131,127,124,121,119,116,113,110,107,105,102,100,97,95,92,90,88,86,84,81,79,77,76,74,72,70,68,67,65,63,62,60,59,57,56,54,53,52,50,49,48,46,45,44,43
487,475,464,453,442,432,421,411,401,392,382,373,365,355,347,338,331,323,315,307,300,293,286,279,272,266,259,253,247,241,235,230,224,219,213,208,203,198,194,189,184,180,176,171,167,163,159,155,151,148,144,141,137,134,131,127,124,121,119,116,113,110,107,105,102,100,97,95,92,90,88,86,84,81,79,77,76,74,72,70,68,67,65,63,62,60,59,57,56,54,53,52,50,49,48,46,45,44
487,475,464,453,442,432,421,411,401,392,382,373,365,355,347,338,331,323,315,307,300,293,286,279,272,266,259,253,247,241,235,230,224,219,213,208,203,198,194,189,184,180,176,171,167,163,159,155,151,148,144,141,137,134,131,127,124,121,119,116,113,110,107,105,102,100,97,95,92,90,88,86,84,81,79,77,76,74,72,70,68,67,65,63,62,60,59,57,56,54,53,52,50,49,48
487,475,464,453,442,432,421,411,401,392,382,373,365,355,347,338,331,323,315,307,300,293,286,279,272,266,259,253,247,241,235,230,224,219,213,208,203,198,194,189,184,180,176,171,167,163,159,155,151,148,144,141,137,134,131,127,124,121,119,116,113,110,107,105,102,100,97,95,92,90,88,86,84,81,79,77,76,74,72,70,68,67,65,63,62,60,59,57,56,54,53,52,50,49
487,475,464,453,442,432,421,411,401,392,382,373,365,355,347,338,331,323,315,307,300,293,286,279,272,266,259,253,247,241,235,230,224,219,213,208,203,198,194,189,184,180,176,171,167,163,159,155,151,148,144,141,137,134,131,127,124,121,119,116,113,110,107,105,102,100,97,95,92,90,88,86,84,81,79,77,76,74,72,70,68,67,65,63,62,60,59,57,56
487,475,464,453,442,432,421,411,401,392,382,373,365,355,347,338,331,323,315,307,300,293,286,279,272,266,259,253,247,241,235,230,224,219,213,208,203,198,194,189,184,180,176,171,167,163,159,155,151,148,144,141,137,134,131,127,124,121,119,116,113,110,107,105,102,100,97,95,92,90,88,86,84,81,79,77,76,74,72,70,68,67,65,63,62
487,475,464,453,442,432,421,411,401,392,382,373,365,355,347,338,331,323,315,307,300,293,286,279,272,266,259,253,247,241,235,230,224,219,213,208,203,198,194,189,184,180,176,171,167,163,159,155,151,148,144,141,137,134,131,127,124,121,119,116,113,110,107,105,102,100,97,95,92,90,88,86,84,81,79,77,76,74,72,70,68,67,65,63,62,60
487,475,464,453,442,432,421,411,401,392,382,373,365,355,347,338,331,323,315,307,300,293,286,279,272,266,259,253,247,241,235,230,224,219,213,208,203,198,194,189,184,180,176,171,167,163,159,155,151,148,144,141,137,134,131,127,124,121,119,116,113,110,107,105,102,100,97,95,92,90,88,86,84,81,79,77,76,74,72,70,68,67,65,63,62,60,59,57,56,54,53,52,50,49,48,46,45,44
487,475,464,453,442,432,421,411,401,392,382,373,365,355,347,338,331,323,315,307,300,293,286,279,272,266,259,253,247,241,235,230,224,219,213,208,203,198,194,189,184,180,176,171,167,163,159,155,151,148,144,141,137,134,131,127,124,121,119,116,113,110,107,105,102,100,97,95,92,90,88,86,84,81,79,77,76,74,72,70,68,67,65,63,62,60,59,57,56,54,53,52
487,475,464,453,442,432,421,411,401,392,382,373,365,355,347,338,331,323,315,307,300,293,286,279,272,266,259,253,247,241,235,230,224,219,213,208,203,198,194,189,184,180,176,171,167,163,159,155,151,148,144,141,137,134,131,127,124,121,119,116,113,110,107,105,102,100,97,95,92,90,88,86,84,81,79,77,76,74,72,70,68,67,65,63,62,60,59,57,56,54,53,52,50
487,475,464,453,442,432,421,411,401,392,382,373,365,355,347,338,331,323,315,307,300,293,286,279,272,266,259,253,247,241,235,230,224,219,213,208,203,198,194,189,184,180,176,171,167,163,159,155,151,148,144,141,137,134,131,127,124,121,119,116,113,110,107,105,102,100,97,95,92,90,88,86,84,81,79,77,76,74,72,70,68,67,65,63,62,60,59,57,56,54,53,52
487,475,464,453,442,432,421,411,401,392,382,373,365,355,347,338,331,323,315,307,300,293,286,279,272,266,259,253,247,241,235,230,224,219,213,208,203,198,194,189,184,180,176,171,167,163,159,155,151,148,144,141,137,134,131,127,124,121,119,116,113,110,107,105,102,100,97,95,92,90,88,86,84,81,79,77,76,74,72,70,68,67,65,63,62,60,59
487,475,464,453,442,432,421,411,401,392,382,373,365,355,347,338,331,323,315,307,300,293,286,279,272,266,259,253,247,241,235,230,224,219,213,208,203,198,194,189,184,180,176,171,167,163,159,155,151,148,144,141,137,134,131,127,124,121,119,116,113,110,107,105,102,100,97,95,92,90,88,86,84,81,79,77,76,74,72,70,68,67,65,63,62,60,59,57,56,54,53,52,50,49,48,46,45,44,43
487,475,464,453,442,432,421,411,401,392,382,373,365,355,347,338,331,323,315,307,300,293,286,279,272,266,259,253,247,241,235,230,224,219,213,208,203,198,194,189,184,180,176,171,167,163,159,155,151,148,144,141,137,134,131,127,124,121,119,116,113,110,107,105,102,100,97,95,92,90,88,86,84,81,79,77,76,74,72,70,68,67,65,63,62,60,59,57,56,54,53,52,50,49
487,475,464,453,442,432,421,411,401,392,382,373,365,355,347,338,331,323,315,307,300,293,286,279,272,266,259,253,247,241,235,230,224,219,213,208,203,198,194,189,184,180,176,171,167,163,159,155,151,148,144,141,137,134,131,127,124,121,119,116,113,110,107,105,102,100,97,95,92,90,88,86,84,81,79,77,76,74,72,70,68,67,65,63,62,60,59,57,56,54,53,52,50,49,48,46,45,44,43,42
487,475,464,453,442,432,421,411,401,392,382,373,365,355,347,338,331,323,315,307,300,293,286,279,272,266,259,253,247,241,235,230,224,219,213,208,203,198,194,189,184,180,176,171,167,163,159,155,151,148,144,141,137,134,131,127,124,121,119,116,113,110,107,105,102,100,97,95,92,90,88,86,84,81,79,77,76,74,72,70,68,67,65,63,62,60,59,57,56,54,53,52,50,49,48,46,45,44,43,42
487,475,464,453,442,432,421,411,401,392,382,373,365,355,347,338,331,323,315,307,300,293,286,279,272,266,259,253,247,241,235,230,224,219,213,208,203,198,194,189,184,180,176,171,167,163,159,155,151,148,144,141,137,134,131,127,124,121,119,116,113,110,107,105,102,100,97,95,92,90,88,86,84,81,79,77,76,74,72,70,68,67,65,63,62,60,59,57,56,54,53,52,50
487,475,464,453,442,432,421,411,401,392,382,373,365,355,347,338,331,323,315,307,300,293,286,279,272,266,259,253,247,241,235,230,224,219,213,208,203,198,194,189,184,180,176,171,167,163,159,155,151,148,144,141,137,134,131,127,124,121,119,116,113,110,107,105,102,100,97,95,92,90,88,86,84,81,79,77,76,74,72,70,68,67,65,63,62,60,59,57,56,54,53,52,50,49,48,46,45,44,43,42
487,475,464,453,442,432,421,411,401,392,382,373,365,355,347,338,331,323,315,307,300,293,286,279,272,266,259,253,247,241,235,230,224,219,213,208,203,198,194,189,184,180,176,171,167,163,159,155,151,148,144,141,137,134,131,127,124,121,119,116,113,110,107,105,102,100,97,95,92,90,88,86,84,81,79,77,76,74,72,70,68,67,65,63,62,60,59,57,56,54,53,52,50,49,48,46,45
487,475,464,453,442,432,421,411,401,392,382,373,365,355,347,338,331,323,315,307,300,293,286,279,272,266,259,253,247,241,235,230,224,219,213,208,203,198,194,189,184,180,176,171,167,163,159,155,151,148,144,141,137,134,131,127,124,121,119,116,113,110,107,105,102,100,97,95,92,90,88,86,84,81,79,77,76,74,72,70,68,67,65,63,62,60,59,57,56,54,53,52,50,49,48
487,475,464,453,442,432,421,411,401,392,382,373,365,355,347,338,331,323,315,307,300,293,286,279,272,266,259,253,247,241,235,230,224,219,213,208,203,198,194,189,184,180,176,171,167,163,159,155,151,148,144,141,137,134,131,127,124,121,119,116,113,110,107,105,102,100,97,95,92,90,88,86,84,81,79,77,76,74,72,70,68,67,65,63,62,60,59,57,56,54,53,52,50,49,48,46
487,475,464,453,442,432,421,411,401,392,382,373,365,355,347,338,331,323,315,307,300,293,286,279,272,266,259,253,247,241,235,230,224,219,213,208,203,198,194,189,184,180,176,171,167,163,159,155,151,148,144,141,137,134,131,127,124,121,119,116,113,110,107,105,102,100,97,95,92,90,88,86,84,81,79,77,76,74,72,70,68,67,65,63,62,60
487,475,464,453,442,432,421,411,401,392,382,373,365,355,347,338,331,323,315,307,300,293,286,279,272,266,259,253,247,241,235,230,224,219,213,208,203,198,194,189,184,180,176,171,167,163,159,155,151,148,144,141,137,134,131,127,124,121,119,116,113,110,107,105,102,100,97,95,92,90,88,86,84,81,79,77,76,74,72,70,68,67,65,63,62,60,59,57,56,54,53,52,50,49,48,46,45,44
487,475,464,453,442,432,421,411,401,392,382,373,365,355,347,338,331,323,315,307,300,293,286,279,272,266,259,253,247,241,235,230,224,219,213,208,203,198,194,189,184,180,176,171,167,163,159,155,151,148,144,141,137,134,131,127,124,121,119,116,113,110,107,105,102,100,97,95,92,90,88,86,84,81,79,77,76,74,72,70,68,67,65,63,62,60,59,57,56,54,53,52,50,49,48,46,45,44,43,42
487,475,464,453,442,432,421,411,401,392,382,373,365,355,347,338,331,323,315,307,300,293,286,279,272,266,259,253,247,241,235,230,224,219,213,208,203,198,194,189,184,180,176,171,167,163,159,155,151,148,144,141,137,134,131,127,124,121,119,116,113,110,107,105,102,100,97,95,92,90,88,86,84,81,79,77,76,74,72,70,68,67,65,63,62,60,59,57,56,54,53,52,50,49,48,46,45,44,43,42
487,475,464,453,442,432,421,411,401,392,382,373,365,355,347,338,331,323,315,307,300,293,286,279,272,266,259,253,247,241,235,230,224,219,213,208,203,198,194,189,184,180,176,171,167,163,159,155,151,148,144,141,137,134,131,127,124,121,119,116,113,110,107,105,102,100,97,95,92,90,88,86,84,81,79,77,76,74,72,70,68,67,65,63,62,60,59,57,56,54,53,52,50,49,48,46,45,44,43,42
487,475,464,453,442,432,421,411,401,392,382,373,365,355,347,338,331,323,315,307,300,293,286,279,272,266,259,253,247,241,235,230,224,219,213,208,203,198,194,189,184,180,176,171,167,163,159,155,151,148,144,141,137,134,131,127,124,121,119,116,113,110,107,105,102,100,97,95,92,90,88,86,84,81,79,77,76,74,72,70,68,67,65,63,62,60,59,57,56,54,53,52,50,49
487,475,464,453,442,432,421,411,401,392,382,373,365,355,347,338,331,323,315,307,300,293,286,279,272,266,259,253,247,241,235,230,224,219,213,208,203,198,194,189,184,180,176,171,167,163,159,155,151,148,144,141,137,134,131,127,124,121,119,116,113,110,107,105,102,100,97,95,92,90,88,86,84,81,79,77,76,74,72,70,68,67,65,63,62,60,59,57,56,54,53,52,50,49,48,46,45,44,43,42
487,475,464,453,442,432,421,411,401,392,382,373,365,355,347,338,331,323,315,307,300,293,286,279,272,266,259,253,247,241,235,230,224,219,213,208,203,198,194,189,184,180,176,171,167,163,159,155,151,148,144,141,137,134,131,127,124,121,119,116,113,110,107,105,102,100,97,95,92,90,88,86,84,81,79,77,76,74,72,70,68,67,65,63,62,60,59,57,56,54,53,52,50,49,48,46,45,44,43,42
487,475,464,453,442,432,421,411,401,392,382,373,365,355,347,338,331,323,315,307,300,293,286,279,272,266,259,253,247,241,235,230,224,219,213,208,203,198,194,189,184,180,176,171,167,163,159,155,151,148,144,141,137,134,131,127,124,121,119,116,113,110,107,105,102,100,97,95,92,90,88,86,84,81,79,77,76,74,72,70,68
487,475,464,453,442,432,421,411,401,392,382,373,365,355,347,338,331,323,315,307,300,293,286,279,272,266,259,253,247,241,235,230,224,219,213,208,203,198,194,189,184,180,176,171,167,163,159,155,151,148,144,141,137,134,131,127,124,121,119,116,113,110,107,105,102,100,97,95,92,90,88,86,84,81,79,77,76,74,72,70,68,67,65,63,62,60,59,57,56,54,53,52,50,49,48,46,45,44,43,42
