\relax 
\citation{bottleneck}
\citation{masshistory}
\citation{lacey1992}
\citation{Shan:2014}
\citation{scivis15}
\citation{mine}
\citation{ellis2007}
\citation{elmqvist2010}
\citation{masshistory}
\citation{clusteringbook}
\@writefile{toc}{\contentsline {section}{\numberline {1}Introduction}{1}}
\@writefile{toc}{\contentsline {subsection}{\numberline {1.1}Background}{1}}
\@writefile{lof}{\contentsline {figure}{\numberline {1}{\ignorespaces The bottom row contains three snapshots, moving forward in time from left to right, of one spatial region of a dark matter simulation. In the first timestep, five halos are clearly identifiable; these merge into three, then into one halo. Above, a plot links together halos that merge into other halos in these snapshots. This plot is a simple example of a ``merger tree.''\relax }}{1}}
\providecommand*\caption@xref[2]{\@setref\relax\@undefined{#1}}
\newlabel{tree_intro}{{1}{1}}
\@writefile{toc}{\contentsline {subsection}{\numberline {1.2}Approach}{1}}
\citation{ball2010}
\citation{elmqvist2010}
\citation{masshistory}
\newlabel{old_tree_a}{{2a}{2}}
\newlabel{sub@old_tree_a}{{a}{2}}
\newlabel{old_tree_b}{{2b}{2}}
\newlabel{sub@old_tree_b}{{b}{2}}
\@writefile{lof}{\contentsline {figure}{\numberline {2}{\ignorespaces Rendering every tree to the screen may be acceptable with a small number of trees (Figure 2a\hbox {}), but increasing the number of trees, even to a few hundred, has disastrous effects on readability (Figure 2b\hbox {}). Here, each line segment represents a halo merging into another halo, as in Figure 1\hbox {}. Many of the lines are almost vertical because very small halos are constantly accreting onto larger ones. Less massive halos are far more common than more massive ones, meaning the low-mass end of the plots becomes occluded especially quickly.\relax }}{2}}
\newlabel{old_method}{{2}{2}}
\newlabel{example_spread}{{3a}{2}}
\newlabel{sub@example_spread}{{a}{2}}
\newlabel{example_stack}{{3b}{2}}
\newlabel{sub@example_stack}{{b}{2}}
\@writefile{lof}{\contentsline {figure}{\numberline {3}{\ignorespaces Sets of clusters representing simulation merger tree data. Top: four clusters, plotted as normalized mass vs. time, describing one complete mass bin from the HACC dataset. Opacity bands indicate bins containing 33\%, 67\%, and 100\% of the trees within each cluster. The clusters are laid out here according to a ``spread view,'' meaning that they are evenly spaced on the screen, with larger clusters toward the top. Numerical indicators show the fraction and number of trees represented by each cluster. While the vast majority of trees follow a gradual, smooth aggregation and accumulate most of their mass in the final timesteps, about four percent of trees, indicated by the red cluster, gain much of this mass earlier. Bottom: the same four clusters, laid out in a ``stack view.'' This allows us to directly compare the characteristic shape of each cluster, using the entire height of the screen, in order to be sure of our conclusions. Here, it is easier to see that trees in the red cluster gain more mass earlier than most of the other trees.\relax }}{2}}
\newlabel{clusters_intro}{{3}{2}}
\citation{clusteringbook}
\citation{masshistory}
\citation{pinocchio}
\citation{kehrer2013}
\citation{wei2012}
\citation{wei2011}
\citation{binx}
\citation{kehrer2013}
\citation{elmqvist2010}
\citation{verifiablevis}
\citation{bottleneck}
\citation{verifiablevis}
\citation{hacc}
\citation{masshistory}
\citation{assemblyhistory}
\@writefile{toc}{\contentsline {subsection}{\numberline {1.3}Validation}{3}}
\@writefile{toc}{\contentsline {section}{\numberline {2}Related Work}{3}}
\@writefile{toc}{\contentsline {section}{\numberline {3}Methods}{3}}
\@writefile{toc}{\contentsline {subsection}{\numberline {3.1}Clustering Techniques}{3}}
\citation{clusteringbook}
\citation{mlcosmosims}
\citation{masshistory}
\citation{distancemetric}
\citation{clusteringbook}
\citation{clusteringbook}
\citation{clusteringbook}
\citation{clusteringbook}
\@writefile{lof}{\contentsline {figure}{\numberline {4}{\ignorespaces Five time series, left, are iteratively clustered from left to right, creating a dendrogram. In step 0, a and b are paired into a cluster. Then, c and d are paired into another cluster. In step 2, time series e joins the cluster that already includes c and d. Finally, the two clusters are merged to create one group. We can choose to query this dendrogram at any step in order to find the desired number of clusters to represent the original data.\relax }}{4}}
\newlabel{dendrogram}{{4}{4}}
\@writefile{toc}{\contentsline {subsection}{\numberline {3.2}Visualization Techniques}{4}}
\citation{albers2014}
\citation{albers2014}
\citation{albers2014}
\newlabel{gray_one}{{5a}{5}}
\newlabel{sub@gray_one}{{a}{5}}
\newlabel{gray_two}{{5b}{5}}
\newlabel{sub@gray_two}{{b}{5}}
\@writefile{lof}{\contentsline {figure}{\numberline {5}{\ignorespaces A gray band helps indicate the average behavior of the trees that have been filtered out of a selection. In 5a\hbox {}, we see that the colored bands represent a small fraction of the data, both by looking at the numbers on the y axis and by looking at the dendrogram thumbnail. On average, as indicated by the gray band, trees seem to accumulate mass more gradually, and later, than the subset we are viewing. 5b\hbox {} shows the same set of clusters in a stacked view, confirming that the trees in the subset we are viewing generally undergo a large accumulation of mass earlier than most trees do.\relax }}{5}}
\newlabel{tree_nav}{{5}{5}}
\@writefile{toc}{\contentsline {subsection}{\numberline {3.3}Validation and Trust}{5}}
\citation{distancemetric}
\citation{wei2012}
\newlabel{fig:sub1}{{6a}{6}}
\newlabel{sub@fig:sub1}{{a}{6}}
\newlabel{fig:sub2}{{6b}{6}}
\newlabel{sub@fig:sub2}{{b}{6}}
\newlabel{random_pair}{{6c}{6}}
\newlabel{sub@random_pair}{{c}{6}}
\newlabel{fig:sub4}{{6d}{6}}
\newlabel{sub@fig:sub4}{{d}{6}}
\@writefile{lof}{\contentsline {figure}{\numberline {6}{\ignorespaces Examples of tree pairings chosen by Dynamic Time Warping.\relax }}{6}}
\newlabel{dtw}{{6}{6}}
\@writefile{toc}{\contentsline {subsection}{\numberline {3.4}Verification Template}{6}}
\@writefile{toc}{\contentsline {section}{\numberline {4}Results}{6}}
\@writefile{toc}{\contentsline {subsection}{\numberline {4.1}Clustering Implementation Test}{7}}
\@writefile{lof}{\contentsline {figure}{\numberline {7}{\ignorespaces Single linkage implementation of the clustering algorithm, with the top level of the hierarchy (top) and two groups at the second-highest level of the hierarchy (bottom). This method leaves outliers exposed at the top levels of the hierarchy, but the cluster paths and the particular outliers may not be meaningful.\relax }}{7}}
\newlabel{single_linkage}{{7}{7}}
\@writefile{lof}{\contentsline {figure}{\numberline {8}{\ignorespaces CAPTION\relax }}{7}}
\newlabel{average_linkage}{{8}{7}}
\@writefile{toc}{\contentsline {subsection}{\numberline {4.2}Outlier Completeness}{7}}
\bibstyle{abbrv}
\bibdata{references}
\bibcite{clusteringbook}{1}
\bibcite{albers2014}{2}
\bibcite{ball2010}{3}
\bibcite{binx}{4}
\bibcite{bottleneck}{5}
\bibcite{ellis2007}{6}
\bibcite{elmqvist2010}{7}
\bibcite{masshistory}{8}
\@writefile{lof}{\contentsline {figure}{\numberline {9}{\ignorespaces CAPTION\relax }}{8}}
\newlabel{complete_linkage}{{9}{8}}
\@writefile{toc}{\contentsline {subsection}{\numberline {4.3}Outside Validation of Results}{8}}
\@writefile{toc}{\contentsline {section}{\numberline {5}Conclusions \& Future Work}{8}}
\@writefile{lof}{\contentsline {figure}{\numberline {10}{\ignorespaces The completeness plot for one type of outlier: trees that experience a more-than-doubling of their mass at some point due to a significant merger event (``major mergers''). On average, outliers resist being added to clusters longer than the trees do in general. This means that our visualization does a decent job of picking out and highlighting these outliers. (TO DO: generate data for full set, and for more types of outliers.)\relax }}{8}}
\newlabel{completeness}{{10}{8}}
\bibcite{hacc}{9}
\bibcite{distancemetric}{10}
\bibcite{mlcosmosims}{11}
\bibcite{kehrer2013}{12}
\bibcite{verifiablevis}{13}
\bibcite{lacey1992}{14}
\bibcite{assemblyhistory}{15}
\bibcite{mine}{16}
\bibcite{scivis15}{17}
\bibcite{Shan:2014}{18}
\bibcite{pinocchio}{19}
\bibcite{wei2011}{20}
\bibcite{wei2012}{21}
