31.0,114.0,6.03587754933e+13,2.0
115.0,161.0,7.51764857979e+13,3.0
29.0,112.0,7.60866587023e+13,2.0
116.0,150.0,7.8470546075e+13,2.0
34.0,154.0,8.31265483828e+13,2.0
67.0,146.0,8.61389817405e+13,2.0
35.0,36.0,8.78547677363e+13,2.0
76.0,160.0,8.9207338091e+13,2.0
68.0,113.0,9.04729064149e+13,2.0
103.0,134.0,1.03637632193e+14,2.0
33.0,159.0,1.07991082437e+14,2.0
75.0,119.0,1.11831273656e+14,2.0
65.0,148.0,1.13903677995e+14,2.0
136.0,164.0,1.19392141826e+14,3.0
66.0,163.0,1.2291037036e+14,3.0
141.0,144.0,1.2336929956e+14,2.0
25.0,151.0,1.25224427815e+14,2.0
61.0,63.0,1.25696238158e+14,2.0
109.0,145.0,1.27032954446e+14,2.0
120.0,168.0,1.32520491146e+14,3.0
64.0,158.0,1.33178891434e+14,2.0
12.0,51.0,1.33502998215e+14,2.0
118.0,152.0,1.33544548122e+14,2.0
74.0,167.0,1.35939391644e+14,3.0
54.0,135.0,1.36240832202e+14,2.0
10.0,92.0,1.37873310831e+14,2.0
69.0,71.0,1.38071010902e+14,2.0
111.0,153.0,1.39132813276e+14,2.0
149.0,155.0,1.39213615808e+14,2.0
15.0,95.0,1.39604842525e+14,2.0
37.0,156.0,1.40707650838e+14,2.0
147.0,177.0,1.41453552861e+14,3.0
70.0,162.0,1.41603676008e+14,4.0
99.0,106.0,1.44119583161e+14,2.0
18.0,143.0,1.45463521164e+14,2.0
30.0,165.0,1.4841618824e+14,3.0
62.0,174.0,1.48908725452e+14,4.0
55.0,59.0,1.49379945e+14,2.0
22.0,28.0,1.54372790448e+14,2.0
45.0,46.0,1.5446500434e+14,2.0
24.0,27.0,1.57550441838e+14,2.0
57.0,100.0,1.60549990191e+14,2.0
108.0,199.0,1.61647027978e+14,3.0
175.0,193.0,1.67865421738e+14,7.0
17.0,102.0,1.67951679704e+14,2.0
26.0,110.0,1.68815383611e+14,2.0
107.0,194.0,1.7245104513e+14,3.0
21.0,117.0,1.74326638408e+14,2.0
23.0,178.0,1.75924449766e+14,3.0
105.0,173.0,1.84318680728e+14,3.0
101.0,142.0,1.91682857373e+14,2.0
56.0,166.0,1.92737872821e+14,3.0
6.0,85.0,1.97806005391e+14,2.0
52.0,132.0,1.99143082912e+14,2.0
97.0,139.0,2.02837076522e+14,2.0
32.0,208.0,2.05571058602e+14,3.0
138.0,169.0,2.06140754807e+14,3.0
19.0,170.0,2.06820663233e+14,3.0
171.0,187.0,2.07668718393e+14,4.0
93.0,104.0,2.09337066597e+14,2.0
20.0,53.0,2.11958122581e+14,2.0
50.0,133.0,2.18037227813e+14,2.0
73.0,157.0,2.33724344698e+14,2.0
192.0,205.0,2.34198323336e+14,5.0
191.0,219.0,2.41619321928e+14,6.0
60.0,203.0,2.42694248571e+14,4.0
179.0,189.0,2.51052516966e+14,4.0
172.0,183.0,2.55408312329e+14,4.0
137.0,190.0,2.565717427e+14,3.0
14.0,94.0,2.61098837283e+14,2.0
13.0,182.0,2.62757395002e+14,3.0
210.0,221.0,2.64188735264e+14,5.0
58.0,227.0,2.67125012438e+14,5.0
140.0,176.0,2.68209980099e+14,3.0
3.0,86.0,2.69268059163e+14,2.0
5.0,213.0,2.73511438567e+14,3.0
180.0,202.0,2.74718029117e+14,5.0
196.0,204.0,2.76200951407e+14,10.0
209.0,212.0,2.78905517008e+14,6.0
201.0,218.0,2.79787084158e+14,5.0
216.0,228.0,2.80951224956e+14,7.0
44.0,185.0,2.83751043996e+14,3.0
217.0,224.0,3.09876008295e+14,8.0
89.0,91.0,3.10029097209e+14,2.0
88.0,200.0,3.12468874126e+14,3.0
9.0,127.0,3.41570250195e+14,2.0
1.0,42.0,3.51664143859e+14,2.0
130.0,186.0,3.52357447032e+14,3.0
16.0,206.0,3.5961458276e+14,3.0
87.0,90.0,3.61731390152e+14,2.0
47.0,231.0,3.66305294169e+14,4.0
98.0,195.0,3.86631363524e+14,3.0
214.0,242.0,3.9195527594e+14,5.0
129.0,131.0,3.93477384475e+14,2.0
184.0,225.0,3.95608023755e+14,9.0
2.0,4.0,4.04992413665e+14,2.0
49.0,244.0,4.06244686945e+14,3.0
197.0,233.0,4.06891886596e+14,9.0
226.0,240.0,4.14167952924e+14,9.0
234.0,243.0,4.1427163955e+14,11.0
211.0,239.0,4.25901384335e+14,8.0
238.0,249.0,4.30149053004e+14,13.0
11.0,222.0,4.42280888984e+14,3.0
188.0,198.0,4.45791843988e+14,4.0
220.0,230.0,4.60440173999e+14,4.0
48.0,251.0,4.63586393154e+14,5.0
72.0,223.0,4.75530166758e+14,3.0
96.0,261.0,4.76386043331e+14,9.0
39.0,77.0,4.81829173064e+14,2.0
8.0,126.0,4.85310909648e+14,2.0
43.0,252.0,5.02429225481e+14,4.0
40.0,269.0,5.05812122624e+14,3.0
181.0,215.0,5.13778399154e+14,4.0
128.0,250.0,5.35111989791e+14,3.0
235.0,236.0,5.36844831767e+14,5.0
122.0,272.0,5.8017159775e+14,4.0
207.0,229.0,5.992778584e+14,6.0
82.0,125.0,6.06931853054e+14,2.0
7.0,263.0,6.10689424295e+14,4.0
83.0,247.0,6.12678871712e+14,3.0
255.0,264.0,6.14284549718e+14,13.0
253.0,259.0,6.22445302958e+14,14.0
232.0,282.0,6.49350302704e+14,19.0
79.0,81.0,6.62842179466e+14,2.0
245.0,260.0,6.65738667204e+14,14.0
266.0,279.0,6.67547072348e+14,9.0
84.0,246.0,6.83183902605e+14,3.0
273.0,281.0,6.97594245775e+14,17.0
248.0,257.0,7.19028086072e+14,6.0
275.0,280.0,7.86405947991e+14,8.0
0.0,78.0,7.88799832381e+14,2.0
274.0,289.0,8.09393671093e+14,9.0
256.0,270.0,8.51163970594e+14,4.0
241.0,288.0,8.69356757648e+14,24.0
258.0,267.0,8.74333554913e+14,12.0
268.0,285.0,8.82124570567e+14,23.0
254.0,265.0,9.11378164171e+14,6.0
124.0,284.0,9.55101175935e+14,3.0
262.0,296.0,1.073775019e+15,36.0
41.0,80.0,1.08895322608e+15,2.0
237.0,295.0,1.24780272582e+15,17.0
287.0,293.0,1.29017050788e+15,7.0
283.0,297.0,1.2977658684e+15,25.0
276.0,300.0,1.31088186151e+15,6.0
277.0,286.0,1.370196342e+15,15.0
271.0,303.0,1.49044044931e+15,29.0
294.0,299.0,1.72460386833e+15,60.0
278.0,298.0,1.80990232787e+15,5.0
123.0,291.0,1.93065857039e+15,3.0
292.0,302.0,1.98269001721e+15,16.0
38.0,121.0,2.15114340508e+15,2.0
301.0,307.0,2.54792275601e+15,77.0
305.0,310.0,2.85920546167e+15,31.0
304.0,309.0,3.00185367123e+15,9.0
306.0,312.0,3.14980324271e+15,106.0
290.0,313.0,3.41303473376e+15,39.0
315.0,316.0,4.22522433732e+15,145.0
308.0,317.0,5.42555804824e+15,150.0
311.0,314.0,7.22331270825e+15,11.0
318.0,319.0,9.43717478745e+15,161.0
