69.0,242.0,0.0,2.0
270.0,276.0,0.0,2.0
305.0,386.0,0.0,2.0
387.0,449.0,0.0,2.0
84.0,220.0,0.0,2.0
123.0,485.0,0.322265625,2.0
107.0,400.0,0.634674072266,2.0
259.0,371.0,0.952087402344,2.0
188.0,224.0,1.04376220703,2.0
103.0,137.0,1.08001708984,2.0
263.0,478.0,1.37686157227,2.0
238.0,326.0,1.69122314453,2.0
79.0,405.0,1.73513793945,2.0
153.0,376.0,1.76287841797,2.0
15.0,208.0,1.80953979492,2.0
22.0,76.0,1.97891235352,2.0
291.0,389.0,2.10134887695,2.0
73.0,363.0,2.1220703125,2.0
452.0,486.0,2.14401245117,2.0
411.0,468.0,2.25607299805,2.0
495.0,508.0,2.31396484375,3.0
214.0,229.0,2.34609985352,2.0
195.0,273.0,2.49545288086,2.0
152.0,511.0,2.50344848633,3.0
38.0,63.0,2.50384521484,2.0
190.0,196.0,2.59387207031,2.0
438.0,444.0,2.72369384766,2.0
134.0,498.0,2.81927490234,2.0
206.0,353.0,2.85263061523,2.0
83.0,379.0,2.8623046875,2.0
225.0,226.0,2.91500854492,2.0
26.0,396.0,2.95059204102,2.0
78.0,519.0,2.95736694336,3.0
274.0,423.0,2.99127197266,2.0
43.0,313.0,3.05450439453,2.0
96.0,499.0,3.0549621582,2.0
298.0,436.0,3.14343261719,2.0
223.0,516.0,3.17416381836,3.0
408.0,497.0,3.26501464844,2.0
205.0,231.0,3.30374145508,2.0
41.0,288.0,3.3798828125,2.0
290.0,440.0,3.3844909668,2.0
159.0,268.0,3.41265869141,2.0
99.0,392.0,3.45950317383,2.0
155.0,406.0,3.50039672852,2.0
532.0,536.0,3.55191040039,5.0
221.0,292.0,3.55471801758,2.0
138.0,294.0,3.57327270508,2.0
418.0,547.0,3.61227416992,3.0
343.0,385.0,3.61560058594,2.0
19.0,37.0,3.64660644531,2.0
394.0,467.0,3.67523193359,2.0
186.0,513.0,3.69158935547,3.0
197.0,510.0,3.81060791016,3.0
367.0,521.0,3.8583984375,3.0
189.0,419.0,3.87030029297,2.0
127.0,169.0,4.00729370117,2.0
20.0,282.0,4.06817626953,2.0
151.0,348.0,4.123046875,2.0
339.0,549.0,4.1432800293,3.0
338.0,378.0,4.16485595703,2.0
180.0,533.0,4.20248413086,3.0
380.0,429.0,4.21960449219,2.0
524.0,560.0,4.25503540039,4.0
457.0,523.0,4.29541015625,4.0
28.0,171.0,4.32995605469,2.0
356.0,358.0,4.35266113281,2.0
35.0,502.0,4.36874389648,3.0
548.0,556.0,4.40560913086,5.0
250.0,403.0,4.43344116211,2.0
44.0,518.0,4.43960571289,3.0
181.0,281.0,4.56561279297,2.0
369.0,567.0,4.58682250977,4.0
53.0,117.0,4.63018798828,2.0
334.0,509.0,4.67672729492,3.0
81.0,566.0,4.77386474609,3.0
119.0,531.0,4.80447387695,3.0
87.0,249.0,4.87890625,2.0
244.0,435.0,4.908203125,2.0
475.0,559.0,4.94567871094,4.0
377.0,520.0,4.99078369141,4.0
368.0,578.0,5.00723266602,3.0
154.0,293.0,5.01477050781,2.0
254.0,515.0,5.05563354492,3.0
375.0,539.0,5.06530761719,3.0
213.0,528.0,5.13208007812,3.0
416.0,563.0,5.15322875977,5.0
537.0,540.0,5.20111083984,5.0
303.0,355.0,5.20504760742,2.0
199.0,336.0,5.21411132812,2.0
57.0,149.0,5.23446655273,2.0
472.0,544.0,5.24572753906,3.0
482.0,526.0,5.27944946289,3.0
301.0,422.0,5.28265380859,2.0
576.0,586.0,5.29446411133,8.0
0.0,91.0,5.43603515625,2.0
98.0,572.0,5.4690246582,5.0
256.0,431.0,5.62213134766,2.0
92.0,255.0,5.63598632812,2.0
280.0,331.0,5.71697998047,2.0
215.0,462.0,5.73095703125,2.0
296.0,412.0,5.73852539062,2.0
554.0,570.0,5.73931884766,6.0
175.0,335.0,5.75115966797,2.0
458.0,598.0,5.76141357422,3.0
401.0,602.0,5.79870605469,7.0
62.0,579.0,5.80508422852,5.0
166.0,277.0,5.84140014648,2.0
553.0,585.0,5.86865234375,6.0
90.0,603.0,5.91448974609,3.0
50.0,594.0,5.92071533203,9.0
49.0,170.0,5.93923950195,2.0
441.0,552.0,5.95022583008,4.0
265.0,612.0,6.03137207031,5.0
568.0,577.0,6.08688354492,7.0
490.0,609.0,6.18127441406,4.0
258.0,613.0,6.21594238281,6.0
395.0,414.0,6.24682617188,2.0
304.0,580.0,6.30435180664,5.0
593.0,616.0,6.36254882812,8.0
474.0,617.0,6.36911010742,3.0
184.0,569.0,6.38342285156,3.0
4.0,605.0,6.39877319336,8.0
393.0,477.0,6.46783447266,2.0
109.0,588.0,6.52359008789,3.0
426.0,583.0,6.53256225586,4.0
167.0,624.0,6.54183959961,4.0
297.0,307.0,6.5625,2.0
500.0,525.0,6.72378540039,4.0
139.0,550.0,6.72808837891,3.0
558.0,610.0,6.82550048828,11.0
33.0,198.0,6.82766723633,2.0
460.0,619.0,6.83215332031,9.0
555.0,621.0,6.85949707031,5.0
6.0,630.0,6.86508178711,12.0
527.0,546.0,6.87857055664,4.0
447.0,543.0,6.87994384766,3.0
217.0,633.0,6.97171020508,6.0
501.0,637.0,6.99514770508,8.0
608.0,622.0,7.06698608398,14.0
571.0,596.0,7.11923217773,7.0
494.0,529.0,7.12451171875,3.0
364.0,639.0,7.12814331055,15.0
626.0,629.0,7.15356445312,7.0
614.0,642.0,7.22961425781,22.0
25.0,415.0,7.23147583008,2.0
541.0,564.0,7.24624633789,6.0
65.0,573.0,7.39227294922,3.0
72.0,351.0,7.46389770508,2.0
111.0,623.0,7.51379394531,3.0
17.0,644.0,7.53637695312,23.0
202.0,557.0,7.57162475586,3.0
503.0,640.0,7.62811279297,9.0
590.0,638.0,7.6354675293,10.0
517.0,562.0,7.66995239258,4.0
634.0,653.0,7.68551635742,22.0
147.0,652.0,7.71203613281,10.0
275.0,641.0,7.79098510742,4.0
68.0,604.0,7.81384277344,4.0
182.0,648.0,7.82089233398,3.0
101.0,625.0,7.86315917969,5.0
164.0,656.0,7.9228515625,11.0
82.0,650.0,7.97149658203,24.0
200.0,506.0,7.99114990234,3.0
491.0,522.0,8.00601196289,3.0
587.0,661.0,8.04971313477,16.0
584.0,665.0,8.05191040039,19.0
620.0,666.0,8.08807373047,22.0
582.0,662.0,8.18377685547,26.0
126.0,618.0,8.19268798828,6.0
542.0,668.0,8.19284057617,28.0
177.0,655.0,8.20343017578,23.0
342.0,654.0,8.21627807617,5.0
174.0,671.0,8.22045898438,24.0
448.0,667.0,8.22222900391,23.0
178.0,592.0,8.22482299805,4.0
267.0,674.0,8.23135375977,24.0
85.0,646.0,8.32116699219,7.0
316.0,675.0,8.43627929688,5.0
240.0,670.0,8.48342895508,29.0
51.0,561.0,8.49047851562,4.0
142.0,157.0,8.58386230469,2.0
100.0,165.0,8.65585327148,2.0
636.0,647.0,8.67492675781,6.0
89.0,308.0,8.72607421875,2.0
121.0,595.0,8.77035522461,3.0
302.0,507.0,8.78570556641,3.0
534.0,664.0,8.84539794922,5.0
94.0,172.0,8.86657714844,2.0
649.0,657.0,8.90881347656,7.0
141.0,350.0,8.93518066406,2.0
145.0,505.0,8.96026611328,3.0
86.0,679.0,8.97341918945,30.0
530.0,632.0,9.04602050781,11.0
659.0,673.0,9.07983398438,27.0
615.0,669.0,9.09332275391,10.0
479.0,695.0,9.11019897461,11.0
311.0,575.0,9.13656616211,4.0
600.0,689.0,9.27749633789,9.0
514.0,628.0,9.28237915039,6.0
480.0,692.0,9.33773803711,31.0
218.0,687.0,9.38140869141,6.0
237.0,606.0,9.39807128906,6.0
204.0,450.0,9.43048095703,2.0
591.0,700.0,9.4560546875,34.0
234.0,607.0,9.49014282227,3.0
40.0,611.0,9.54058837891,3.0
187.0,551.0,9.65216064453,3.0
512.0,696.0,9.68017578125,13.0
128.0,439.0,9.69793701172,2.0
115.0,693.0,9.74691772461,12.0
163.0,328.0,9.76858520508,2.0
61.0,264.0,9.77276611328,2.0
658.0,685.0,9.77978515625,7.0
227.0,635.0,9.84097290039,5.0
704.0,710.0,9.92306518555,46.0
42.0,402.0,9.97659301758,2.0
93.0,676.0,9.99847412109,25.0
104.0,717.0,10.1844177246,26.0
682.0,715.0,10.2093200684,48.0
545.0,719.0,10.3222961426,53.0
463.0,699.0,10.3284301758,7.0
56.0,266.0,10.341583252,2.0
59.0,156.0,10.3824462891,2.0
565.0,694.0,10.4081115723,29.0
701.0,707.0,10.4421081543,9.0
413.0,718.0,10.4439086914,27.0
702.0,725.0,10.4929504395,15.0
191.0,720.0,10.559173584,54.0
535.0,574.0,10.5694274902,5.0
365.0,597.0,10.6116027832,3.0
698.0,729.0,10.6268310547,14.0
538.0,688.0,10.734588623,4.0
703.0,713.0,10.751373291,9.0
651.0,728.0,10.7817687988,57.0
727.0,732.0,10.8734436035,19.0
708.0,731.0,10.9109802246,27.0
428.0,714.0,10.9880981445,6.0
599.0,663.0,11.0604553223,5.0
207.0,262.0,11.0867614746,2.0
733.0,736.0,11.2104492188,36.0
680.0,721.0,11.2345581055,11.0
257.0,327.0,11.3538208008,2.0
709.0,740.0,11.4218444824,38.0
289.0,445.0,11.475402832,2.0
299.0,309.0,11.5649719238,2.0
581.0,683.0,11.6327819824,9.0
643.0,724.0,11.6963500977,36.0
47.0,120.0,11.9647827148,2.0
315.0,341.0,12.0170593262,2.0
678.0,741.0,12.0443115234,16.0
716.0,746.0,12.1358642578,11.0
627.0,672.0,12.1911315918,7.0
697.0,743.0,12.1958007812,42.0
684.0,751.0,12.2109069824,13.0
455.0,631.0,12.2448425293,3.0
116.0,748.0,12.2669372559,3.0
383.0,726.0,12.2755737305,28.0
737.0,747.0,12.4237060547,42.0
370.0,758.0,12.4474182129,43.0
660.0,705.0,12.6051635742,8.0
272.0,601.0,12.6539306641,3.0
179.0,359.0,12.6924133301,2.0
735.0,755.0,12.8085021973,22.0
754.0,759.0,12.8817443848,56.0
129.0,271.0,12.903717041,2.0
70.0,384.0,12.938659668,2.0
58.0,734.0,13.0369567871,58.0
730.0,753.0,13.0383300781,45.0
388.0,742.0,13.1361694336,3.0
761.0,763.0,13.1970825195,25.0
750.0,768.0,13.3335266113,61.0
706.0,760.0,13.5539550781,11.0
770.0,771.0,13.6192321777,86.0
764.0,773.0,13.7264404297,142.0
230.0,757.0,13.7348937988,29.0
765.0,775.0,13.7606201172,31.0
677.0,738.0,13.8854980469,12.0
118.0,686.0,13.9120178223,4.0
774.0,778.0,13.9616699219,146.0
752.0,776.0,14.0088500977,38.0
193.0,194.0,14.1950378418,2.0
767.0,779.0,14.5288085938,204.0
245.0,766.0,14.6698913574,3.0
88.0,287.0,14.7207336426,2.0
780.0,782.0,14.7519226074,242.0
777.0,785.0,14.9569396973,254.0
16.0,465.0,15.2487487793,2.0
158.0,762.0,15.3519897461,3.0
349.0,788.0,15.9129333496,4.0
284.0,314.0,16.1155090332,2.0
711.0,749.0,16.3431091309,4.0
382.0,786.0,16.634765625,255.0
12.0,235.0,16.6585083008,2.0
285.0,433.0,16.7785949707,2.0
407.0,464.0,17.320892334,2.0
29.0,772.0,17.5299072266,12.0
391.0,424.0,17.7650146484,2.0
18.0,790.0,17.7659301758,3.0
60.0,427.0,17.7766113281,2.0
357.0,483.0,17.7832641602,2.0
216.0,745.0,18.2266845703,3.0
360.0,469.0,18.2276306152,2.0
5.0,797.0,18.4558410645,3.0
493.0,803.0,18.8142089844,4.0
48.0,236.0,18.8883972168,2.0
67.0,798.0,19.0134887695,4.0
489.0,784.0,19.0255737305,3.0
453.0,791.0,19.2125549316,5.0
31.0,783.0,19.2699584961,4.0
324.0,789.0,19.365020752,5.0
346.0,800.0,19.3664550781,3.0
681.0,792.0,19.7745361328,257.0
589.0,796.0,19.7948913574,14.0
75.0,347.0,19.8989257812,2.0
454.0,814.0,20.068572998,3.0
286.0,806.0,20.0754394531,5.0
430.0,804.0,20.0874328613,5.0
232.0,808.0,20.1016540527,6.0
769.0,818.0,20.1536560059,9.0
210.0,712.0,20.1633911133,3.0
144.0,810.0,20.1736755371,6.0
317.0,691.0,20.3070983887,4.0
9.0,366.0,20.3498840332,2.0
150.0,690.0,20.4311828613,3.0
813.0,822.0,20.5199279785,18.0
168.0,451.0,20.7960205078,2.0
504.0,817.0,20.9227294922,7.0
459.0,723.0,21.0692443848,3.0
52.0,239.0,21.1354675293,2.0
183.0,330.0,21.2580871582,2.0
352.0,802.0,21.4609985352,3.0
24.0,333.0,21.4689331055,2.0
283.0,323.0,21.5596313477,2.0
476.0,816.0,21.5754089355,6.0
300.0,830.0,21.5796813965,3.0
819.0,834.0,21.7825317383,15.0
148.0,739.0,21.8767700195,3.0
23.0,30.0,22.1445007324,2.0
14.0,470.0,22.3202514648,2.0
398.0,821.0,22.4770812988,7.0
373.0,807.0,22.5325012207,4.0
248.0,361.0,22.6005554199,2.0
484.0,835.0,22.7074279785,4.0
11.0,815.0,22.8460083008,4.0
32.0,795.0,23.0967407227,3.0
843.0,844.0,23.1070556641,8.0
247.0,832.0,23.1344604492,3.0
340.0,805.0,23.1487731934,3.0
827.0,837.0,23.3096618652,10.0
812.0,825.0,23.5076904297,275.0
66.0,846.0,23.5154418945,9.0
319.0,374.0,23.7261047363,2.0
471.0,787.0,23.759185791,3.0
143.0,185.0,24.1217041016,2.0
161.0,243.0,24.2143554688,2.0
269.0,851.0,24.4652099609,10.0
80.0,823.0,24.7449035645,3.0
332.0,855.0,24.8672790527,3.0
132.0,362.0,24.9618530273,2.0
95.0,793.0,25.1871643066,3.0
836.0,845.0,25.4055480957,18.0
135.0,425.0,25.6014099121,2.0
3.0,842.0,25.6051025391,3.0
756.0,861.0,25.6689147949,21.0
146.0,481.0,25.7530212402,2.0
131.0,345.0,25.8296203613,2.0
102.0,838.0,25.8829040527,3.0
809.0,820.0,25.9099121094,7.0
7.0,854.0,26.1903381348,3.0
847.0,860.0,26.2974853516,6.0
253.0,849.0,26.3813476562,11.0
831.0,839.0,26.4543762207,5.0
397.0,840.0,26.5104675293,8.0
841.0,856.0,26.8261413574,14.0
829.0,857.0,26.938873291,5.0
781.0,811.0,26.9708557129,5.0
34.0,871.0,27.091796875,12.0
278.0,410.0,27.1199951172,2.0
246.0,864.0,27.7430114746,22.0
279.0,875.0,27.7847900391,6.0
112.0,321.0,27.804107666,2.0
10.0,432.0,27.9162597656,2.0
113.0,160.0,28.0811767578,2.0
97.0,434.0,28.1272888184,2.0
261.0,833.0,28.3928833008,3.0
858.0,879.0,28.4240112305,25.0
848.0,886.0,28.4959106445,28.0
162.0,877.0,28.551361084,13.0
21.0,64.0,28.7002868652,2.0
55.0,409.0,28.8025512695,2.0
799.0,874.0,28.9794311523,16.0
744.0,801.0,29.0021972656,5.0
337.0,891.0,29.1397094727,17.0
125.0,887.0,29.2456054688,29.0
322.0,894.0,29.5758361816,30.0
872.0,883.0,29.6023254395,7.0
2.0,252.0,29.6058959961,2.0
888.0,896.0,30.0009765625,20.0
421.0,442.0,30.0542297363,2.0
124.0,320.0,30.0549316406,2.0
209.0,381.0,30.2710571289,2.0
867.0,895.0,30.2715454102,33.0
105.0,136.0,30.3904724121,2.0
211.0,902.0,30.6774291992,34.0
893.0,898.0,30.6812438965,37.0
130.0,884.0,30.9690856934,3.0
873.0,889.0,31.0310974121,10.0
865.0,899.0,31.1379699707,4.0
13.0,880.0,31.2417297363,7.0
329.0,862.0,31.2572021484,3.0
54.0,241.0,31.2715759277,2.0
77.0,907.0,31.3913574219,11.0
645.0,904.0,31.5850219727,36.0
456.0,870.0,31.7391967773,7.0
325.0,905.0,31.800567627,38.0
794.0,863.0,31.8689575195,5.0
46.0,909.0,31.8828125,8.0
260.0,916.0,32.0342102051,6.0
496.0,722.0,32.1756286621,3.0
869.0,897.0,32.4913024902,5.0
826.0,868.0,32.7148742676,9.0
306.0,915.0,32.7904968262,39.0
203.0,859.0,32.8243103027,3.0
914.0,920.0,33.1578369141,12.0
866.0,924.0,33.3210754395,14.0
390.0,913.0,33.3738708496,37.0
404.0,922.0,33.4546813965,40.0
45.0,892.0,33.4620056152,6.0
27.0,110.0,33.4639282227,2.0
900.0,927.0,33.4808044434,42.0
108.0,906.0,33.5222167969,4.0
926.0,930.0,33.6953430176,79.0
917.0,923.0,34.1520996094,11.0
39.0,878.0,34.299987793,3.0
910.0,928.0,34.3422241211,9.0
473.0,933.0,34.343536377,12.0
233.0,932.0,34.3980102539,80.0
461.0,936.0,34.7059631348,13.0
828.0,937.0,34.7653808594,83.0
251.0,931.0,34.9043579102,5.0
919.0,939.0,34.9752807617,86.0
882.0,938.0,35.1992797852,15.0
934.0,942.0,35.8176879883,18.0
318.0,940.0,35.961151123,6.0
487.0,824.0,35.9899597168,4.0
122.0,935.0,36.1101989746,10.0
912.0,929.0,36.1290283203,13.0
446.0,943.0,36.2211914062,19.0
885.0,903.0,36.3540039062,5.0
911.0,941.0,36.3733825684,88.0
417.0,908.0,36.7995605469,5.0
173.0,295.0,37.1329345703,2.0
921.0,946.0,37.3851623535,19.0
466.0,951.0,37.584197998,6.0
945.0,950.0,37.6832275391,92.0
344.0,437.0,37.841003418,2.0
949.0,955.0,38.3002929688,97.0
901.0,918.0,38.4208068848,8.0
948.0,957.0,38.4341430664,116.0
952.0,959.0,38.6298522949,118.0
953.0,958.0,38.996673584,27.0
106.0,133.0,39.0761108398,2.0
8.0,36.0,39.1555786133,2.0
140.0,310.0,39.3160400391,2.0
219.0,960.0,39.3430480957,119.0
176.0,965.0,39.4719238281,120.0
881.0,925.0,39.5715942383,16.0
212.0,954.0,39.8570251465,7.0
964.0,966.0,40.3303833008,122.0
852.0,853.0,40.3680114746,5.0
890.0,969.0,40.4938049316,124.0
488.0,971.0,40.8070678711,125.0
354.0,961.0,41.4257507324,28.0
970.0,973.0,41.9400939941,33.0
201.0,443.0,42.0846557617,2.0
222.0,972.0,42.3745422363,126.0
956.0,967.0,42.438293457,18.0
1.0,976.0,42.7575683594,127.0
372.0,974.0,43.0609130859,34.0
399.0,978.0,44.9450378418,128.0
71.0,980.0,45.1738891602,129.0
947.0,979.0,45.4803161621,47.0
975.0,981.0,45.4812011719,131.0
228.0,977.0,46.127166748,19.0
983.0,984.0,46.297668457,150.0
74.0,985.0,47.0885009766,151.0
114.0,986.0,47.2082214355,152.0
944.0,982.0,47.5825195312,53.0
492.0,987.0,49.2833251953,153.0
988.0,989.0,49.6669311523,206.0
963.0,990.0,49.7630615234,208.0
968.0,991.0,50.2779846191,215.0
876.0,992.0,51.5556335449,220.0
312.0,993.0,52.9859924316,221.0
850.0,994.0,55.2797851562,496.0
192.0,995.0,55.6751708984,497.0
962.0,996.0,56.3972473145,499.0
420.0,997.0,60.013458252,500.0
